# Blender v2.62 (sub 0) OBJ File: ''
# www.blender.org
mtllib Level_1.mtl
o Mesh_Mesh_Mesh_Plane
v -7.499997 0.000003 -8.000002
v -7.999997 0.000003 -8.000003
v -7.999997 0.000003 -7.500003
v -7.499997 0.000003 -7.500002
v -6.999997 0.000003 -8.000002
v -6.999997 0.000003 -7.500002
v -7.999997 0.000003 -7.000003
v -7.499997 0.000003 -7.000003
v -6.999998 0.000003 -7.000002
v -6.499997 0.000003 -8.000002
v -6.499998 0.000003 -7.500002
v -5.999998 0.000003 -8.000002
v -5.999998 0.000003 -7.500002
v -6.499998 0.000003 -7.000002
v -5.999998 0.000003 -7.000002
v -7.999997 0.000003 -6.500003
v -7.499998 0.000003 -6.500003
v -6.999998 0.000003 -6.500003
v -7.999998 0.000003 -6.000003
v -7.499998 0.000003 -6.000003
v -6.999998 0.000003 -6.000003
v -6.499998 0.000003 -6.500002
v -5.999998 0.000003 -6.500002
v -6.499998 0.000003 -6.000003
v -5.999998 0.000003 -6.000002
v -5.499998 0.000003 -8.000002
v -5.499998 0.000003 -7.500002
v -4.999998 0.000003 -8.000002
v -4.999998 0.000003 -7.500002
v -5.499998 0.000003 -7.000002
v -4.999998 0.000003 -7.000002
v -4.499998 0.000003 -8.000002
v -4.499998 0.000003 -7.500002
v -3.999998 0.000003 -8.000002
v -3.999998 0.000003 -7.500002
v -4.499998 0.000003 -7.000002
v -3.999998 0.000003 -7.000002
v -5.499998 0.000003 -6.500002
v -4.999998 0.000003 -6.500002
v -5.499998 0.000003 -6.000002
v -4.999998 0.000003 -6.000002
v -4.499998 0.000003 -6.500002
v -3.999998 0.000003 -6.500002
v -4.499998 0.000003 -6.000002
v -3.999998 0.000003 -6.000002
v -7.999998 0.000003 -5.500003
v -7.499998 0.000003 -5.500003
v -6.999998 0.000003 -5.500003
v -7.999998 0.000003 -5.000003
v -7.499998 0.000003 -5.000003
v -6.999998 0.000003 -5.000002
v -6.499998 0.000003 -5.500002
v -5.999998 0.000003 -5.500002
v -6.499998 0.000003 -5.000002
v -5.999998 0.000003 -5.000002
v -7.999998 0.000003 -4.500003
v -7.499998 0.000003 -4.500002
v -6.999998 0.000003 -4.500002
v -7.999998 0.000003 -4.000002
v -7.499998 0.000003 -4.000002
v -6.999998 0.000003 -4.000002
v -6.499998 0.000003 -4.500002
v -5.999998 0.000003 -4.500002
v -6.499998 0.000003 -4.000002
v -5.999998 0.000003 -4.000002
v -5.499998 0.000003 -5.500002
v -4.999998 0.000003 -5.500002
v -5.499998 0.000003 -5.000002
v -4.999998 0.000003 -5.000002
v -4.499998 0.000003 -5.500002
v -3.999998 0.000003 -5.500002
v -4.499998 0.000003 -5.000002
v -3.999998 0.000003 -5.000002
v -5.499998 0.000003 -4.500002
v -4.999998 0.000003 -4.500002
v -5.499998 0.000003 -4.000002
v -4.999998 0.000003 -4.000002
v -4.499998 0.000003 -4.500002
v -3.999999 0.000003 -4.500002
v -4.499998 0.000003 -4.000002
v -3.999999 0.000003 -4.000002
v -3.499998 0.000003 -8.000002
v -3.499998 0.000003 -7.500002
v -2.999998 0.000003 -8.000002
v -2.999998 0.000003 -7.500002
v -3.499998 0.000003 -7.000002
v -2.999998 0.000003 -7.000002
v -2.499998 0.000003 -8.000002
v -2.499998 0.000003 -7.500002
v -1.999998 0.000003 -8.000002
v -1.999998 0.000003 -7.500002
v -2.499998 0.000003 -7.000002
v -1.999998 0.000003 -7.000002
v -3.499998 0.000003 -6.500002
v -2.999998 0.000003 -6.500002
v -3.499998 0.000003 -6.000002
v -2.999998 0.000003 -6.000002
v -2.499998 0.000003 -6.500002
v -1.999998 0.000003 -6.500002
v -2.499998 0.000003 -6.000002
v -1.999998 0.000003 -6.000001
v -1.499998 0.000003 -8.000002
v -1.499998 0.000003 -7.500002
v -0.999998 0.000003 -8.000002
v -0.999998 0.000003 -7.500002
v -1.499998 0.000003 -7.000002
v -0.999999 0.000003 -7.000001
v -0.499998 0.000003 -8.000002
v -0.499999 0.000003 -7.500001
v 0.000001 0.000003 -8.000001
v 0.000001 0.000003 -7.500001
v -0.499999 0.000003 -7.000001
v 0.000001 0.000003 -7.000001
v -1.499998 0.000003 -6.500001
v -0.999999 0.000003 -6.500001
v -1.499999 0.000003 -6.000001
v -0.999999 0.000003 -6.000001
v -0.499999 0.000003 -6.500001
v 0.000001 0.000003 -6.500001
v -0.499999 0.000003 -6.000001
v 0.000001 0.000003 -6.000001
v -3.499998 0.000003 -5.500002
v -2.999999 0.000003 -5.500002
v -3.499999 0.000003 -5.000002
v -2.999999 0.000003 -5.000002
v -2.499999 0.000003 -5.500002
v -1.999999 0.000003 -5.500001
v -2.499999 0.000003 -5.000002
v -1.999999 0.000003 -5.000001
v -3.499999 0.000003 -4.500002
v -2.999999 0.000003 -4.500002
v -3.499999 0.000003 -4.000002
v -2.999999 0.000003 -4.000002
v -2.499999 0.000003 -4.500002
v -1.999999 0.000003 -4.500001
v -2.499999 0.000003 -4.000002
v -1.999999 0.000003 -4.000001
v -1.499999 0.000003 -5.500001
v -0.999999 0.000003 -5.500001
v -1.499999 0.000003 -5.000001
v -0.999999 0.000003 -5.000001
v -0.499999 0.000003 -5.500001
v 0.000001 0.000003 -5.500001
v -0.499999 0.000003 -5.000001
v 0.000001 0.000003 -5.000001
v -1.499999 0.000003 -4.500001
v -0.999999 0.000003 -4.500001
v -1.499999 0.000003 -4.000001
v -0.999999 0.000003 -4.000001
v -0.499999 0.000003 -4.500001
v 0.000001 0.000003 -4.500001
v -0.499999 0.000003 -4.000001
v 0.000001 0.000003 -4.000001
v -7.999998 0.000003 -3.500002
v -7.499998 0.000003 -3.500002
v -6.999998 0.000003 -3.500002
v -7.999998 0.000000 -3.000002
v -7.499998 0.000000 -3.000002
v -6.999998 0.000000 -3.000002
v -6.499998 0.000003 -3.500002
v -5.999998 0.000003 -3.500002
v -6.499998 0.000000 -3.000002
v -5.999999 0.000000 -3.000002
v -7.999998 0.000000 -2.500002
v -7.499998 0.000000 -2.500002
v -6.999999 0.000000 -2.500002
v -7.999999 0.000000 -2.000002
v -7.499999 0.000000 -2.000002
v -6.999999 0.000000 -2.000002
v -6.499999 0.000000 -2.500002
v -5.999999 0.000000 -2.500002
v -6.499999 0.000000 -2.000002
v -5.999999 0.000000 -2.000002
v -5.499998 0.000003 -3.500002
v -4.999998 0.000003 -3.500002
v -5.499999 0.000000 -3.000002
v -4.999999 0.000000 -3.000002
v -4.499998 0.000003 -3.500002
v -3.999999 0.000003 -3.500002
v -4.499999 0.000000 -3.000002
v -3.999999 0.000000 -3.000002
v -5.499999 0.000000 -2.500002
v -4.999999 0.000000 -2.500002
v -5.499999 0.000000 -2.000002
v -4.999999 0.000000 -2.000002
v -4.499999 0.000000 -2.500002
v -3.999999 0.000000 -2.500002
v -4.499999 0.000000 -2.000002
v -3.999999 0.000000 -2.000002
v -7.999999 0.000000 -1.500002
v -7.499999 0.000000 -1.500002
v -6.999999 0.000000 -1.500002
v -7.999999 0.000000 -1.000002
v -7.499999 0.000000 -1.000002
v -6.999999 0.000000 -1.000002
v -6.499999 0.000000 -1.500002
v -5.999999 0.000000 -1.500002
v -6.499999 0.000000 -1.000002
v -5.999999 0.000000 -1.000002
v -7.999999 0.000000 -0.500002
v -7.499999 0.000000 -0.500002
v -6.999999 0.000000 -0.500002
v -7.999999 0.000000 -0.000002
v -7.499999 0.000000 -0.000002
v -6.999999 0.000000 -0.000002
v -6.499999 0.000000 -0.500002
v -5.999999 0.000000 -0.500002
v -6.499999 0.000000 -0.000002
v -5.999999 0.000000 -0.000002
v -5.499999 0.000000 -1.500002
v -4.999999 0.000000 -1.500002
v -5.499999 0.000000 -1.000002
v -4.999999 0.000000 -1.000002
v -4.499999 0.000000 -1.500002
v -3.999999 0.000000 -1.500002
v -4.499999 0.000000 -1.000002
v -4.009742 0.101941 -1.003475
v -5.499999 0.000000 -0.500002
v -4.999999 0.000000 -0.500002
v -5.499999 0.000000 -0.000002
v -4.999999 0.000000 -0.000002
v -4.499999 0.027724 -0.500002
v -4.216695 0.763914 -0.507686
v -4.499999 0.000000 -0.000002
v -3.999999 0.000000 -0.000002
v -3.499999 0.000003 -3.500002
v -2.999999 0.000003 -3.500002
v -3.499999 0.000000 -3.000002
v -2.999999 0.000000 -3.000002
v -2.499999 0.000003 -3.500002
v -1.999999 0.000006 -3.500001
v -2.499999 -0.000009 -3.000001
v -1.999999 0.461889 -3.000001
v -3.499999 0.000000 -2.500002
v -2.999999 0.000000 -2.500001
v -3.499999 0.000000 -2.000001
v -2.999999 0.000000 -2.000001
v -2.499999 0.037175 -2.500001
v -1.999999 1.000000 -2.500001
v -2.499999 0.319773 -2.000001
v -1.999999 1.000000 -2.000001
v -1.495653 0.020070 -3.503682
v -0.999999 0.000001 -3.500001
v -1.362752 0.753808 -3.064433
v -0.955790 0.988244 -3.018403
v -0.499999 0.000003 -3.500001
v 0.000001 0.000003 -3.500001
v -0.508469 0.922505 -3.008471
v -0.075084 0.905863 -3.059675
v -1.499999 0.228421 -2.500001
v -0.999615 0.005308 -2.500029
v -1.499999 0.023936 -2.000001
v -0.999999 0.000000 -2.000001
v -0.499999 0.005715 -2.500001
v -0.000967 0.015611 -2.500770
v -0.499999 0.000000 -2.000001
v 0.000001 0.000000 -2.000001
v -3.499999 0.000000 -1.500002
v -2.999999 0.001127 -1.500001
v -3.529543 0.309123 -1.010534
v -3.008565 0.141548 -1.001304
v -2.499999 0.917385 -1.500001
v -1.999999 0.669069 -1.500001
v -2.511202 1.240927 -0.942875
v -1.999999 0.085905 -1.000001
v -3.595169 0.995314 -0.533882
v -3.049627 0.456101 -0.507781
v -3.499999 0.000000 -0.000002
v -2.999999 0.393844 -0.000001
v -2.499999 0.673711 -0.500001
v -1.999999 0.000164 -0.500001
v -2.499999 0.457764 -0.000001
v -1.999999 0.000000 -0.000001
v -1.499999 0.000000 -1.500001
v -0.999999 0.000000 -1.500001
v -1.499999 0.000000 -1.000001
v -0.999999 0.000000 -1.000001
v -0.499999 0.000000 -1.500001
v 0.000001 0.000000 -1.500001
v -0.499999 0.000000 -1.000001
v 0.000001 0.000000 -1.000001
v -1.499999 0.000000 -0.500001
v -0.999999 0.000000 -0.500001
v -1.499999 0.000000 -0.000001
v -0.999999 0.000000 -0.000001
v -0.499999 0.000000 -0.500001
v 0.000001 0.000000 -0.500001
v -0.499999 0.000000 -0.000001
v 0.000000 -0.000001 -0.000001
v 0.500001 0.000003 -8.000000
v 0.500001 0.000003 -7.500000
v 1.000001 0.000003 -8.000000
v 1.000001 0.000003 -7.500000
v 0.500001 0.000003 -7.000001
v 1.000001 0.000003 -7.000000
v 1.500001 0.000003 -8.000000
v 1.500001 0.000003 -7.500000
v 2.000001 0.000003 -8.000000
v 2.000001 0.000003 -7.500000
v 1.500001 0.000003 -7.000000
v 2.000001 0.000003 -7.000000
v 0.500001 0.000003 -6.500001
v 1.000001 0.000003 -6.500001
v 0.500001 0.000003 -6.000001
v 1.000001 0.000003 -6.000001
v 1.500001 0.000003 -6.500000
v 2.000001 0.000003 -6.500000
v 1.500001 0.000003 -6.000001
v 2.000001 0.000003 -6.000000
v 2.500001 0.000003 -8.000000
v 2.500001 0.000003 -7.500000
v 3.000001 0.000003 -8.000000
v 3.000001 0.000003 -7.500000
v 2.500001 0.000003 -7.000000
v 3.000001 0.000003 -7.000000
v 3.500001 0.000003 -8.000000
v 3.500001 0.000003 -7.500000
v 4.000001 0.000003 -8.000000
v 4.000001 0.000003 -7.500000
v 3.500001 0.000003 -7.000000
v 4.000001 0.000003 -7.000000
v 2.500001 0.000003 -6.500000
v 3.000001 0.000003 -6.500000
v 2.500001 0.000003 -6.000000
v 3.000001 0.000003 -6.000000
v 3.500001 0.000003 -6.500000
v 4.000001 0.000003 -6.500000
v 3.500001 0.000003 -6.000000
v 4.000001 0.000003 -6.000000
v 0.500001 0.000003 -5.500001
v 1.000001 0.000003 -5.500001
v 0.500001 0.000003 -5.000001
v 1.000001 0.000003 -5.000001
v 1.500001 0.000003 -5.500001
v 2.000001 0.000003 -5.500001
v 1.500001 0.000003 -5.000001
v 2.000046 0.000028 -4.999991
v 0.500001 0.000003 -4.500001
v 1.000001 0.000003 -4.500001
v 0.500001 0.000003 -4.000001
v 1.000001 0.000003 -4.000001
v 1.500001 0.000003 -4.500001
v 2.000063 0.000036 -4.500014
v 1.500001 0.000003 -4.000001
v 2.000000 0.000002 -4.000001
v 2.502267 0.002226 -5.497217
v 3.015917 0.038670 -5.449281
v 2.563186 0.055872 -4.972778
v 3.273317 0.367701 -4.755857
v 3.499442 0.093987 -5.370664
v 3.988602 0.064562 -5.407372
v 3.665027 0.502235 -4.590214
v 3.996470 0.529812 -4.503197
v 2.601559 0.084347 -4.519564
v 3.396952 0.452884 -4.490722
v 2.530329 0.024171 -4.002381
v 3.354970 0.401951 -4.123152
v 3.742301 0.533429 -4.435161
v 4.052917 0.552561 -4.374840
v 3.754927 0.527641 -4.279721
v 4.094034 0.550476 -4.258334
v 4.500001 0.000003 -8.000000
v 4.500001 0.000003 -7.500000
v 5.000001 0.000003 -8.000000
v 5.000001 0.000003 -7.500000
v 4.500001 0.000003 -7.000000
v 5.000001 0.000003 -7.000000
v 5.500001 0.000003 -8.000000
v 5.500001 0.000003 -7.500000
v 6.000000 0.000003 -8.000000
v 6.000000 0.000003 -7.500000
v 5.500001 0.000003 -7.000000
v 6.000000 0.000003 -7.000000
v 4.500001 0.000003 -6.500000
v 5.000001 0.000003 -6.500000
v 4.500001 0.000003 -6.000000
v 5.000001 0.000003 -6.000000
v 5.500001 0.000003 -6.500000
v 6.000000 0.000003 -6.500000
v 5.500001 0.000003 -6.000000
v 6.000000 0.000003 -6.000000
v 6.500000 0.000003 -8.000000
v 6.500000 0.000003 -7.500000
v 7.000000 0.000003 -8.000000
v 7.000000 0.000003 -7.500000
v 6.500000 0.000003 -7.000000
v 7.000000 0.000003 -7.000000
v 7.500000 0.000003 -8.000000
v 7.500000 0.000003 -7.500000
v 8.000000 0.000003 -8.000000
v 8.000000 0.000003 -7.500000
v 7.500000 0.000003 -7.000000
v 8.000000 0.000003 -7.000000
v 6.500000 0.000003 -6.500000
v 7.000000 0.000003 -6.500000
v 6.500000 0.000003 -6.000000
v 7.000000 0.000003 -6.000000
v 7.500000 0.000003 -6.500000
v 8.000000 0.000003 -6.500000
v 7.500000 0.000003 -6.000000
v 8.000000 0.000003 -6.000000
v 4.494813 0.026869 -5.459707
v 4.997691 0.008522 -5.486622
v 4.420261 0.527221 -4.454700
v 4.816382 0.499690 -4.444309
v 5.499570 0.000767 -5.498770
v 6.000000 0.000003 -5.500000
v 5.284240 0.340884 -4.607992
v 5.980772 0.022793 -4.972156
v 4.474050 0.555482 -4.319179
v 4.852759 0.546664 -4.270490
v 4.515759 0.554511 -4.216137
v 4.882096 0.547070 -4.164617
v 5.152949 0.512045 -4.239317
v 5.688837 0.327247 -4.305897
v 5.179072 0.515423 -4.098353
v 5.650901 0.360819 -4.028467
v 6.500000 0.000003 -5.500000
v 7.000000 0.000003 -5.500000
v 6.499962 0.000040 -4.999944
v 7.000000 0.000003 -5.000000
v 7.500000 0.000003 -5.500000
v 8.000000 0.000003 -5.500000
v 7.500000 0.000003 -5.000000
v 8.000000 0.000003 -5.000000
v 6.479117 0.017377 -4.488295
v 7.000001 0.000003 -4.500000
v 6.451989 0.040349 -4.004237
v 6.999945 0.000033 -4.000003
v 7.500000 0.000003 -4.500000
v 8.000000 0.000003 -4.500000
v 7.500000 0.000003 -4.000000
v 8.000000 0.000003 -4.000000
v 0.500001 0.000003 -3.500001
v 1.000001 0.000003 -3.500001
v 0.303182 0.764364 -3.179309
v 0.983972 0.062246 -3.014603
v 1.500001 0.000003 -3.500001
v 2.000000 0.000003 -3.500001
v 1.500001 0.045772 -3.000001
v 2.000000 0.000000 -3.000001
v 0.484866 0.058779 -2.513790
v 0.999649 0.150920 -2.500322
v 0.500001 0.000000 -2.000001
v 1.000001 0.857857 -2.000001
v 1.500001 1.000000 -2.500001
v 2.000000 0.012219 -2.500001
v 1.500000 1.000000 -2.000001
v 2.000000 0.000000 -2.000001
v 2.513895 0.011444 -3.505191
v 3.136032 0.169754 -3.588130
v 2.500493 0.000446 -3.000563
v 3.008155 0.013810 -3.017183
v 3.674767 0.394734 -3.720523
v 4.072873 0.478485 -3.791259
v 3.520041 0.069743 -3.085077
v 4.016090 0.137081 -3.159929
v 2.500000 0.000000 -2.500001
v 3.000000 0.000000 -2.500000
v 2.500000 0.000000 -2.000000
v 3.000000 0.000000 -2.000000
v 3.500000 0.000000 -2.500000
v 4.000012 0.000056 -2.500104
v 3.500000 0.000000 -2.000000
v 4.000000 0.000000 -2.000000
v 0.500001 0.001263 -1.500001
v 1.000000 1.000000 -1.500001
v 0.500001 0.020536 -1.000001
v 1.000000 0.954007 -1.000001
v 1.500000 0.286459 -1.500001
v 2.000000 0.000000 -1.500001
v 1.500909 0.034863 -0.999876
v 2.000042 0.002220 -0.999979
v 0.500000 0.045474 -0.500001
v 1.000000 0.716228 -0.500001
v 0.499885 0.158274 -0.000119
v 1.000000 0.753729 -0.000001
v 1.585127 0.522434 -0.494694
v 2.002663 0.695667 -0.500175
v 1.448867 0.105088 0.013765
v 2.000686 0.162788 -0.000210
v 2.500000 0.000000 -1.500001
v 3.000000 0.000000 -1.500000
v 2.500005 0.000986 -1.000002
v 3.000000 -0.000005 -1.000001
v 3.500000 0.000000 -1.500000
v 4.000000 0.000000 -1.500000
v 3.500000 0.000000 -1.000000
v 4.000000 0.000000 -1.000000
v 2.500773 0.999999 -0.500774
v 3.000000 1.000000 -0.500001
v 2.500494 0.639313 -0.000495
v 3.000000 1.000000 -0.000001
v 3.500000 1.000000 -0.500001
v 4.000000 0.016146 -0.500000
v 3.500000 1.000000 -0.000001
v 4.000000 0.045380 -0.000001
v 4.524927 0.503898 -3.839037
v 4.929249 0.500141 -3.862622
v 4.493934 0.164022 -3.191416
v 4.975542 0.141316 -3.168049
v 5.282828 0.425797 -3.790019
v 5.861178 0.167366 -3.617527
v 5.474954 0.053310 -3.063521
v 5.996203 0.004268 -3.005189
v 4.499985 0.000174 -2.500307
v 5.000000 -0.000002 -2.499998
v 4.500000 0.000000 -2.000000
v 5.000000 0.000000 -2.000000
v 5.500000 0.000000 -2.500001
v 6.000000 0.000000 -2.500000
v 5.500000 0.000000 -2.000000
v 6.000000 0.000000 -2.000000
v 6.491081 0.008022 -3.507048
v 7.000000 0.000003 -3.500000
v 6.500000 0.000000 -2.999999
v 7.000000 0.000000 -3.000000
v 7.500000 0.000003 -3.500000
v 8.000000 0.000003 -3.500000
v 7.500000 0.000000 -3.000000
v 8.000000 0.000000 -3.000000
v 6.500000 0.000000 -2.500000
v 7.000000 0.000000 -2.500000
v 6.500000 0.000000 -2.000000
v 7.000000 0.000000 -2.000000
v 7.500000 0.000000 -2.500000
v 8.000000 0.000000 -2.500000
v 7.500000 0.000000 -2.000000
v 8.000000 0.000000 -2.000000
v 4.500000 0.000000 -1.500000
v 5.000000 0.000000 -1.500000
v 4.500000 0.000000 -1.000000
v 5.000000 0.000000 -1.000000
v 5.500000 0.000000 -1.500000
v 6.000000 0.000000 -1.500000
v 5.500000 0.000000 -1.000000
v 6.000000 0.000000 -1.000000
v 4.500000 0.000000 -0.500000
v 5.000000 0.000000 -0.500000
v 4.500000 0.000000 0.000000
v 5.000000 0.000000 0.000000
v 5.500000 0.000000 -0.500000
v 6.000000 0.000000 -0.500000
v 5.500000 0.000000 0.000000
v 6.000000 0.000000 0.000000
v 6.500000 0.000000 -1.500000
v 7.000000 0.000000 -1.500000
v 6.500000 0.000000 -1.000000
v 7.000000 0.000000 -1.000000
v 7.500000 0.000000 -1.500000
v 8.000000 0.000000 -1.500000
v 7.500000 0.000000 -1.000000
v 8.000000 0.000000 -1.000000
v 6.500000 0.000000 -0.500000
v 7.000000 0.000000 -0.500000
v 6.500000 0.000000 0.000000
v 7.000000 0.000000 0.000000
v 7.500000 0.000000 -0.500000
v 8.000000 0.000000 -0.500000
v 7.500000 0.000000 0.000000
v 8.000000 0.000000 0.000000
v -7.999999 -0.000000 0.499998
v -7.499999 -0.000000 0.499998
v -6.999999 -0.000000 0.499998
v -7.999999 -0.000000 0.999998
v -7.499999 -0.000000 0.999998
v -6.999999 -0.000000 0.999998
v -6.499999 -0.000000 0.499998
v -5.999999 -0.000000 0.499998
v -6.499999 -0.000000 0.999998
v -5.999999 -0.000000 0.999998
v -7.999999 -0.000000 1.499998
v -7.499999 -0.000000 1.499998
v -6.999999 -0.000000 1.499998
v -8.000000 -0.000000 1.999998
v -7.500000 -0.000000 1.999998
v -7.000000 -0.000000 1.999998
v -6.499999 -0.000000 1.499998
v -5.999999 -0.000000 1.499998
v -6.500000 -0.000000 1.999998
v -6.000000 -0.000000 1.999998
v -5.499999 -0.000000 0.499998
v -4.999999 -0.000000 0.499998
v -5.499999 -0.000000 0.999998
v -4.999999 -0.000000 0.999998
v -4.499999 -0.000000 0.499998
v -4.000000 -0.000000 0.499998
v -4.499999 -0.000000 0.999998
v -4.000000 -0.000000 0.999998
v -5.499999 -0.000000 1.499998
v -4.999999 -0.000000 1.499998
v -5.500000 -0.000000 1.999998
v -5.000000 -0.000000 1.999998
v -4.499999 -0.000000 1.499998
v -4.000000 -0.000000 1.499998
v -4.500000 -0.000000 1.999998
v -4.000000 -0.000000 1.999998
v -8.000000 -0.000000 2.499998
v -7.500000 -0.000000 2.499998
v -7.000000 -0.000000 2.499998
v -8.000000 -0.000000 2.999998
v -7.500000 -0.000000 2.999998
v -7.000000 -0.000000 2.999998
v -6.500000 -0.000000 2.499998
v -6.000000 -0.000000 2.499998
v -6.500000 -0.000000 2.999998
v -6.000000 -0.000000 2.999998
v -8.000000 -0.000003 3.499998
v -7.500000 -0.000003 3.499998
v -7.000000 -0.000003 3.499998
v -8.000000 -0.000003 3.999998
v -7.500000 -0.000003 3.999998
v -7.000000 -0.000003 3.999998
v -6.500000 -0.000003 3.499998
v -6.000000 -0.000003 3.499998
v -6.500000 -0.000003 3.999998
v -6.000000 -0.000003 3.999998
v -5.500000 -0.000000 2.499999
v -5.000000 -0.000000 2.499999
v -5.500000 -0.000000 2.999999
v -5.000000 -0.000000 2.999999
v -4.500000 -0.000000 2.499999
v -4.000000 -0.000000 2.499999
v -4.500000 -0.000000 2.999999
v -4.000000 -0.000000 2.999999
v -5.500000 -0.000003 3.499999
v -5.000000 -0.000003 3.499999
v -5.500000 -0.000003 3.999999
v -5.000000 -0.000003 3.999999
v -4.500000 -0.000003 3.499999
v -4.000000 -0.000003 3.499999
v -4.500000 -0.000003 3.999999
v -4.000000 -0.000003 3.999999
v -3.500098 0.005084 0.499141
v -3.000000 0.749671 0.499999
v -3.505538 0.124924 0.980051
v -3.015399 0.871111 0.865889
v -2.500000 0.325191 0.499999
v -2.000000 -0.000000 0.499999
v -2.500746 0.131234 0.993497
v -2.000930 0.080754 0.999999
v -3.501792 0.221548 1.496998
v -3.000000 0.926786 1.499999
v -3.500000 0.005779 1.999999
v -3.000000 0.128889 1.999999
v -2.500000 1.000000 1.499999
v -2.011518 0.999934 1.499999
v -2.502445 0.344307 1.999999
v -2.000115 0.499361 1.999999
v -1.500000 -0.000000 0.499999
v -1.000000 0.000009 0.499999
v -1.499913 0.111373 0.999443
v -0.995225 0.437001 0.997820
v -0.501896 0.012441 0.500108
v -0.005326 0.179012 0.505847
v -0.501731 0.548930 1.000144
v -0.031993 0.503586 1.014717
v -1.499137 0.986887 1.494462
v -0.989373 1.058708 1.495149
v -1.499751 0.284120 1.998404
v -0.999344 0.060040 1.999699
v -0.502220 0.716594 1.500185
v -0.009055 0.453509 1.511952
v -0.500130 0.046382 2.000010
v -0.000129 0.001394 2.000028
v -3.500000 -0.000000 2.499999
v -3.000000 -0.000000 2.499999
v -3.500000 -0.000000 2.999999
v -3.000000 -0.000000 2.999999
v -2.500000 -0.000000 2.499999
v -2.000000 -0.000000 2.499999
v -2.500000 -0.000000 2.999999
v -2.000000 -0.000000 2.999999
v -3.500000 -0.000003 3.499999
v -3.000000 -0.000003 3.499999
v -3.500000 -0.000003 3.999999
v -3.000000 -0.000003 3.999999
v -2.500000 -0.000003 3.499999
v -2.000000 -0.000003 3.499999
v -2.500000 -0.000003 3.999999
v -2.000000 0.003091 3.999999
v -1.500000 -0.000000 2.499999
v -1.000000 -0.000000 2.499999
v -1.500000 -0.000000 2.999999
v -1.000000 -0.000000 2.999999
v -0.500000 -0.000000 2.499999
v 0.000000 -0.000000 2.499999
v -0.500000 -0.000000 2.999999
v 0.000000 -0.000000 2.999999
v -1.500000 0.121484 3.499999
v -1.000000 0.000380 3.499999
v -1.500000 0.533881 3.999999
v -0.999995 0.122262 4.000001
v -0.500000 -0.000003 3.499999
v 0.000000 -0.000003 3.499999
v -0.499991 0.000071 3.999998
v 0.000008 0.000289 3.999995
v -8.000000 -0.000003 4.499998
v -7.500000 -0.000003 4.499998
v -7.000000 -0.000003 4.499998
v -8.000000 -0.000003 4.999998
v -7.500000 -0.000003 4.999998
v -7.000000 -0.000003 4.999998
v -6.500000 -0.000003 4.499998
v -6.000000 -0.000003 4.499999
v -6.500000 -0.000003 4.999998
v -6.000000 -0.000003 4.999999
v -8.000000 -0.000003 5.499998
v -7.500000 -0.000003 5.499998
v -7.000000 -0.000003 5.499998
v -8.000000 -0.000003 5.999998
v -7.500000 -0.000003 5.999998
v -7.000000 -0.000003 5.999998
v -6.500000 -0.000003 5.499998
v -6.000000 -0.000003 5.499999
v -6.500000 -0.000003 5.999998
v -6.000000 -0.000003 5.999999
v -5.500000 -0.000003 4.499999
v -5.000000 -0.000003 4.499999
v -5.500000 -0.000003 4.999999
v -5.000000 -0.000003 4.999999
v -4.500000 -0.000003 4.499999
v -4.000000 -0.000003 4.499999
v -4.500000 -0.000003 4.999999
v -4.000000 -0.000003 4.999999
v -5.500000 -0.000003 5.499999
v -5.000000 -0.000003 5.499999
v -5.500000 -0.000003 5.999999
v -5.000000 -0.000003 5.999999
v -4.500000 -0.000003 5.499999
v -4.000000 -0.000003 5.499999
v -4.500000 -0.000003 5.999999
v -4.000000 -0.000003 5.999999
v -8.000000 -0.000003 6.499998
v -7.500000 -0.000003 6.499998
v -7.000000 -0.000003 6.499998
v -8.000000 -0.000003 6.999998
v -7.500000 -0.000003 6.999998
v -7.000000 -0.000003 6.999999
v -6.500000 -0.000003 6.499999
v -6.000000 -0.000003 6.499999
v -6.500000 -0.000003 6.999999
v -6.000000 -0.000003 6.999999
v -8.000000 -0.000003 7.499998
v -7.500000 -0.000003 7.499999
v -7.000000 -0.000003 7.499999
v -8.000001 -0.000003 7.999999
v -7.500001 -0.000003 7.999999
v -7.000001 -0.000003 7.999999
v -6.500001 -0.000003 7.499999
v -6.000001 -0.000003 7.499999
v -6.500001 -0.000003 7.999999
v -6.000001 -0.000003 7.999999
v -5.500000 -0.000003 6.499999
v -5.000000 -0.000003 6.499999
v -5.500001 -0.000003 6.999999
v -5.000001 -0.000003 6.999999
v -4.500001 -0.000003 6.499999
v -4.000001 -0.000003 6.499999
v -4.500001 -0.000003 6.999999
v -4.000001 -0.000003 6.999999
v -5.500001 -0.000003 7.499999
v -5.000001 -0.000003 7.499999
v -5.500001 -0.000003 7.999999
v -5.000001 -0.000003 7.999999
v -4.500001 -0.000003 7.499999
v -4.000001 -0.000003 7.499999
v -4.500001 -0.000003 7.999999
v -4.000001 -0.000003 7.999999
v -3.500000 -0.000003 4.499999
v -3.000000 -0.000003 4.499999
v -3.500000 -0.000003 4.999999
v -3.000000 0.000011 4.999999
v -2.500000 0.192197 4.499999
v -1.999992 0.018502 4.500002
v -2.500000 0.554154 4.999999
v -2.000000 0.999997 4.999999
v -3.500000 -0.000003 5.499999
v -3.000000 -0.000003 5.499999
v -3.500000 -0.000003 5.999999
v -3.000000 -0.000003 5.999999
v -2.500000 -0.000003 5.499999
v -1.999866 0.062688 5.500057
v -2.500000 -0.000003 5.999999
v -2.000000 -0.000003 5.999999
v -1.498670 0.697128 4.500568
v -0.983423 0.393784 4.498261
v -1.499322 1.005638 5.000289
v -0.958407 0.433499 4.992967
v -0.474136 0.243573 4.495626
v 0.051232 0.482486 4.491337
v -0.399997 0.941793 4.983092
v 0.105573 0.994248 4.982150
v -1.493548 0.593820 5.499939
v -0.999435 1.004334 5.499994
v -1.499903 0.110070 6.000041
v -0.999999 0.748086 6.000000
v -0.439100 0.923939 5.489703
v 0.105573 0.994248 5.482150
v -0.493460 0.271728 5.998893
v 0.018958 0.178544 5.996794
v -3.500001 -0.000003 6.499999
v -3.000001 -0.000003 6.499999
v -3.500001 -0.000003 6.999999
v -3.000001 -0.000003 6.999999
v -2.500000 -0.000003 6.499999
v -2.000000 -0.000003 6.499999
v -2.500001 -0.000003 6.999999
v -2.000001 -0.000003 6.999999
v -3.500001 -0.000003 7.499999
v -3.000001 -0.000003 7.499999
v -3.500001 -0.000003 7.999999
v -3.000001 -0.000003 7.999999
v -2.500001 -0.000003 7.499999
v -2.000001 -0.000003 7.499999
v -2.500001 -0.000003 7.999999
v -2.000001 -0.000003 7.999999
v -1.500000 -0.000003 6.499999
v -1.000000 -0.000003 6.499999
v -1.500001 -0.000003 6.999999
v -1.000001 -0.000003 6.999999
v -0.500000 -0.000003 6.499999
v -0.000001 -0.000007 6.499999
v -0.500001 -0.000003 6.999999
v -0.000001 -0.000003 6.999999
v -1.500001 -0.000003 7.499999
v -1.000001 -0.000003 7.499999
v -1.500001 -0.000003 7.999999
v -1.000001 -0.000003 7.999999
v -0.500001 -0.000003 7.499999
v -0.000001 -0.000003 7.499999
v -0.500001 -0.000003 7.999999
v -0.000001 -0.000003 7.999999
v 0.513866 0.784865 0.499103
v 1.125993 0.745048 0.491356
v 0.498422 0.326693 1.011302
v 1.000028 0.000674 1.000034
v 1.489689 -0.000000 0.496320
v 2.000000 0.018620 0.499999
v 1.500000 -0.000000 0.999999
v 2.000000 0.014312 0.999999
v 0.499087 0.467715 1.512604
v 0.999996 0.001862 1.500049
v 0.500000 0.000127 2.000002
v 1.000000 -0.000000 1.999999
v 1.500000 -0.000000 1.499999
v 2.000000 0.009095 1.499999
v 1.500000 -0.000000 1.999999
v 2.000000 0.015805 1.999999
v 2.500000 -0.000000 0.499999
v 3.000000 -0.000000 0.499999
v 2.500000 -0.000000 0.999999
v 3.000000 -0.000000 0.999999
v 3.500000 0.004178 0.499999
v 4.000000 -0.000000 0.499999
v 3.500000 -0.000000 0.999999
v 4.000000 -0.000000 1.000000
v 2.500000 -0.000000 1.499999
v 3.000000 -0.000000 1.499999
v 2.500000 -0.000000 1.999999
v 3.000000 -0.000000 1.999999
v 3.500000 -0.000000 1.500000
v 4.000000 -0.000000 1.500000
v 3.500000 -0.000000 2.000000
v 4.000000 -0.000000 2.000000
v 0.500000 -0.000000 2.499999
v 1.000000 -0.000000 2.499999
v 0.500000 -0.000000 2.999999
v 1.000000 -0.000000 2.999999
v 1.500000 -0.000000 2.499999
v 2.000000 -0.000000 2.499999
v 1.500000 -0.000000 2.999999
v 2.000000 -0.000000 2.999999
v 0.500000 -0.000003 3.499999
v 1.000000 -0.000003 3.499999
v 0.500000 0.001365 3.999999
v 1.000000 0.005267 3.999999
v 1.500000 -0.000003 3.499999
v 2.000000 -0.000003 3.499999
v 1.500000 0.013057 3.999999
v 2.000000 0.028905 3.999999
v 2.500000 -0.000000 2.500000
v 3.000000 -0.000000 2.500000
v 2.500000 -0.000000 3.000000
v 3.000000 -0.000000 3.000000
v 3.500000 -0.000000 2.500000
v 4.000000 -0.000000 2.500000
v 3.500000 -0.000000 3.000000
v 4.000000 -0.000000 3.000000
v 2.500000 -0.000003 3.500000
v 3.000000 -0.000003 3.500000
v 2.500000 0.055077 4.000000
v 3.000000 0.095479 4.000000
v 3.500000 -0.000003 3.500000
v 4.000000 -0.000003 3.500000
v 3.500000 0.084397 4.000000
v 4.000000 0.011552 4.000000
v 4.500000 -0.000000 0.500000
v 5.000000 -0.000000 0.500000
v 4.500000 -0.000000 1.000000
v 5.000000 -0.000000 1.000000
v 5.500000 -0.000000 0.500000
v 6.000000 -0.000000 0.500000
v 5.500000 -0.000000 1.000000
v 6.000000 -0.000000 1.000000
v 4.500000 -0.000000 1.500000
v 5.000000 -0.000000 1.500000
v 4.500000 -0.000000 2.000000
v 5.000000 -0.000000 2.000000
v 5.500000 -0.000000 1.500000
v 6.000000 -0.000000 1.500000
v 5.500000 -0.000000 2.000000
v 6.000000 -0.000000 2.000000
v 6.500000 -0.000000 0.500000
v 7.000000 -0.000000 0.500000
v 6.500000 -0.000000 1.000000
v 7.000000 -0.000000 1.000000
v 7.500000 -0.000000 0.500000
v 8.000000 -0.000000 0.500000
v 7.500000 -0.000000 1.000000
v 8.000000 -0.000000 1.000000
v 6.500000 -0.000000 1.500000
v 7.000000 -0.000000 1.500000
v 6.500000 -0.000000 2.000000
v 7.000000 -0.000000 2.000000
v 7.500000 -0.000000 1.500000
v 8.000000 -0.000000 1.500000
v 7.500000 -0.000000 2.000000
v 8.000000 -0.000000 2.000000
v 4.500000 -0.000000 2.500000
v 5.000000 -0.000000 2.500000
v 4.500000 -0.000000 3.000000
v 5.000000 -0.000000 3.000000
v 5.500000 -0.000000 2.500000
v 6.000000 -0.000000 2.500000
v 5.500000 -0.000000 3.000000
v 6.000000 -0.000000 3.000000
v 4.500000 -0.000003 3.500000
v 5.000000 -0.000003 3.500000
v 4.500000 -0.000003 4.000000
v 5.000000 -0.000003 4.000000
v 5.500000 -0.000003 3.500000
v 6.000000 -0.000003 3.500000
v 5.500000 -0.000003 4.000000
v 6.000000 -0.000003 4.000000
v 6.500000 -0.000000 2.500000
v 7.000000 -0.000000 2.500000
v 6.500000 -0.000000 3.000000
v 7.000000 -0.000000 3.000000
v 7.500000 -0.000000 2.500000
v 8.000000 -0.000000 2.500000
v 7.500000 -0.000000 3.000000
v 8.000000 -0.000000 3.000000
v 6.500000 -0.000003 3.500000
v 7.000000 -0.000003 3.500000
v 6.500000 -0.000003 4.000000
v 7.000000 -0.000003 4.000000
v 7.500000 -0.000003 3.500000
v 8.000000 -0.000003 3.500000
v 7.500000 -0.000003 4.000000
v 8.000000 -0.000003 4.000000
v 0.572402 0.681855 4.487758
v 1.000000 0.917181 4.499999
v 0.605573 0.994248 4.982150
v 1.085426 0.996237 4.985556
v 1.500000 0.999997 4.499999
v 2.000000 0.999997 4.499999
v 1.500000 0.999997 4.999999
v 2.000000 0.999997 4.999999
v 0.605573 0.994248 5.482150
v 1.085426 0.996237 5.485556
v 0.515887 0.149621 5.997313
v 1.000000 0.127141 5.999999
v 1.500000 0.999997 5.499999
v 2.000000 0.999997 5.499999
v 1.500000 0.096803 5.999999
v 2.000000 0.072396 5.999999
v 2.500000 0.999997 4.499999
v 3.000000 0.999997 4.499999
v 2.500000 0.999997 4.999999
v 3.000000 0.999994 4.999999
v 3.500000 0.999997 4.499999
v 4.000000 0.285300 4.499999
v 3.500000 0.999997 4.999999
v 4.000000 0.495997 4.999999
v 2.500000 0.999997 5.499999
v 3.000000 0.999997 5.499999
v 2.500000 0.054976 5.999999
v 3.000000 0.036941 5.999999
v 3.500000 0.930933 5.499999
v 4.000000 0.088178 5.499999
v 3.500000 0.007605 5.999999
v 4.000000 -0.000007 5.999999
v 0.500000 -0.000003 6.499999
v 1.000000 -0.000003 6.499999
v 0.499999 -0.000003 6.999999
v 0.999999 -0.000003 6.999999
v 1.500000 -0.000003 6.499999
v 2.000000 -0.000003 6.499999
v 1.500000 -0.000003 6.999999
v 2.000000 -0.000003 6.999999
v 0.499999 -0.000003 7.499999
v 0.999999 -0.000003 7.499999
v 0.499999 -0.000003 7.999999
v 0.999999 -0.000003 7.999999
v 1.500000 -0.000003 7.499999
v 2.000000 -0.000003 7.499999
v 1.499999 -0.000003 7.999999
v 1.999999 -0.000003 7.999999
v 2.500000 -0.000003 6.499999
v 3.000000 -0.000003 6.499999
v 2.500000 -0.000003 6.999999
v 3.000000 -0.000003 6.999999
v 3.500000 -0.000003 6.499999
v 4.000000 -0.000003 6.499999
v 3.500000 -0.000003 6.999999
v 4.000000 -0.000003 6.999999
v 2.500000 -0.000003 7.499999
v 3.000000 -0.000003 7.499999
v 2.500000 -0.000003 7.999999
v 3.000000 -0.000003 7.999999
v 3.500000 -0.000003 7.499999
v 4.000000 -0.000003 7.499999
v 3.500000 -0.000003 7.999999
v 4.000000 -0.000003 7.999999
v 4.500000 0.002967 4.499999
v 5.000000 -0.000003 4.499999
v 4.500000 0.003576 4.999999
v 5.000000 -0.000003 4.999999
v 5.500000 -0.000003 4.499999
v 6.000000 -0.000003 4.499999
v 5.500000 -0.000003 4.999999
v 6.000000 -0.000003 4.999999
v 4.500000 -0.000003 5.499999
v 5.000000 -0.000003 5.499999
v 4.500000 -0.000003 5.999999
v 5.000000 -0.000003 5.999999
v 5.500000 -0.000003 5.499999
v 6.000000 -0.000003 5.499999
v 5.500000 -0.000003 5.999999
v 6.000000 -0.000003 5.999999
v 6.500000 -0.000003 4.499999
v 7.000000 -0.000003 4.499999
v 6.500000 -0.000003 4.999999
v 7.000000 -0.000003 4.999999
v 7.500000 -0.000003 4.499999
v 8.000000 -0.000003 4.500000
v 7.500000 -0.000003 4.999999
v 8.000000 -0.000003 5.000000
v 6.500000 -0.000003 5.499999
v 7.000000 -0.000003 5.499999
v 6.500000 -0.000003 5.999999
v 7.000000 -0.000003 5.999999
v 7.500000 -0.000003 5.499999
v 8.000000 -0.000003 5.500000
v 7.500000 -0.000003 5.999999
v 8.000000 -0.000003 6.000000
v 4.500000 -0.000003 6.499999
v 5.000000 -0.000003 6.499999
v 4.500000 -0.000003 6.999999
v 5.000000 -0.000003 6.999999
v 5.500000 -0.000003 6.499999
v 6.000000 -0.000003 6.499999
v 5.500000 -0.000003 6.999999
v 6.000000 -0.000003 6.999999
v 4.500000 -0.000003 7.499999
v 5.000000 -0.000003 7.499999
v 4.500000 -0.000003 7.999999
v 5.000000 -0.000003 7.999999
v 5.500000 -0.000003 7.499999
v 6.000000 -0.000003 7.499999
v 5.500000 -0.000003 7.999999
v 6.000000 -0.000003 7.999999
v 6.500000 -0.000003 6.499999
v 7.000000 -0.000003 6.499999
v 6.500000 -0.000003 6.999999
v 7.000000 -0.000003 6.999999
v 7.500000 -0.000003 6.499999
v 8.000000 -0.000003 6.500000
v 7.500000 -0.000003 6.999999
v 8.000000 -0.000003 7.000000
v 6.500000 -0.000003 7.499999
v 7.000000 -0.000003 7.499999
v 6.500000 -0.000003 7.999999
v 7.000000 -0.000003 7.999999
v 7.500000 -0.000003 7.499999
v 8.000000 -0.000003 7.500000
v 7.500000 -0.000003 7.999999
v 8.000000 -0.000003 8.000000
vn 0.000000 1.000000 0.000000
vn 0.000000 0.999969 0.000000
vn -0.005036 0.999847 -0.015107
vn 0.005036 0.999969 -0.005036
vn -0.025239 0.996734 -0.076327
vn -0.083621 0.995422 -0.046205
vn -0.320139 0.812891 -0.486496
vn -0.020753 0.999756 -0.006897
vn -0.006928 0.999939 0.006928
vn -0.480087 0.864071 -0.151219
vn -0.589343 0.807855 -0.004975
vn -0.150945 0.968902 0.195959
vn -0.016663 0.870785 0.491317
vn -0.110752 0.954039 -0.278359
vn -0.279794 0.952452 -0.120487
vn -0.520463 0.613086 -0.594317
vn -0.027802 0.999542 -0.009278
vn -0.220283 0.973296 -0.064119
vn -0.515366 0.829493 -0.215125
vn -0.122898 0.973144 -0.194586
vn -0.723777 0.589892 -0.357921
vn 0.182897 0.980621 0.069887
vn -0.052217 0.883602 -0.465255
vn 0.005066 0.857295 -0.514786
vn -0.233314 0.896969 -0.375469
vn -0.088961 0.995453 -0.033723
vn 0.006348 0.853908 -0.520371
vn -0.006348 0.850948 -0.525163
vn 0.102451 0.994354 0.026551
vn 0.173406 0.984069 -0.038728
vn 0.556841 0.647786 0.519852
vn 0.120975 0.840938 0.527360
vn 0.527635 0.836177 0.149510
vn 0.017823 0.999756 0.011383
vn 0.000763 0.864834 0.502029
vn -0.008362 0.890500 0.454848
vn -0.002441 0.999939 0.008179
vn -0.010559 0.999573 0.026337
vn -0.046358 0.970550 -0.236335
vn -0.387432 0.890469 -0.238594
vn -0.054506 0.718040 -0.693808
vn -0.323801 0.834681 -0.445418
vn -0.431715 0.812860 -0.390912
vn 0.737236 0.591083 0.327158
vn -0.022614 0.985687 0.166875
vn 0.602130 0.738334 0.303720
vn 0.122440 0.991699 0.038972
vn -0.123051 0.976836 0.174932
vn -0.219794 0.888852 0.401990
vn -0.494675 0.861782 -0.112094
vn 0.382305 0.752983 0.535539
vn 0.431166 0.898770 0.079012
vn 0.453261 0.878780 0.149297
vn 0.340465 0.939940 0.023286
vn 0.359355 0.925932 0.116031
vn 0.063784 0.997711 0.021241
vn -0.000946 0.999969 -0.000305
vn -0.015687 0.999847 -0.004791
vn 0.000122 1.000000 0.000031
vn -0.039125 0.999207 -0.006195
vn -0.003082 0.999939 -0.009339
vn -0.159825 0.975311 -0.152196
vn -0.000549 0.999969 -0.001648
vn -0.008301 0.999603 -0.026521
vn -0.010224 0.997925 -0.063478
vn 0.005341 0.998169 -0.059816
vn -0.001648 0.999969 -0.000549
vn -0.036958 0.999237 -0.012024
vn -0.000031 0.999969 0.000000
vn -0.064150 0.997925 -0.005310
vn -0.035554 0.999268 0.012360
vn -0.037690 0.998260 -0.044801
vn -0.099490 0.976531 -0.190924
vn -0.194220 0.975372 -0.104495
vn -0.264077 0.927702 -0.263802
vn -0.026948 0.951415 -0.306650
vn 0.033540 0.958190 -0.284097
vn -0.099033 0.951506 -0.291177
vn 0.015748 0.951201 -0.308145
vn -0.279214 0.960204 0.002716
vn -0.312021 0.949461 -0.033204
vn -0.225074 0.973144 0.048006
vn -0.273690 0.941343 0.197241
vn -0.134800 0.989837 -0.044893
vn -0.020844 0.997223 -0.071413
vn -0.167730 0.977386 0.128605
vn -0.052034 0.993683 0.099185
vn 0.007721 0.999420 -0.032807
vn 0.004212 0.999908 -0.012574
vn 0.001892 0.999969 -0.002655
vn 0.000183 1.000000 -0.000183
vn 0.032380 0.968444 -0.247017
vn 0.017670 0.974151 -0.225135
vn 0.048769 0.945067 -0.323130
vn 0.119083 0.936552 -0.329661
vn 0.015656 0.981628 -0.190008
vn 0.044160 0.996796 -0.066500
vn 0.215400 0.925932 -0.310190
vn 0.178899 0.966430 -0.184332
vn 0.027039 0.993408 -0.111301
vn 0.096286 0.981903 -0.162999
vn -0.002716 0.997497 0.070345
vn 0.059816 0.996673 0.054964
vn 0.200079 0.959655 -0.197424
vn 0.300912 0.938658 -0.168279
vn 0.207831 0.976104 0.062990
vn 0.335795 0.937193 0.094028
vn 0.005402 0.999969 -0.005463
vn 0.062563 0.996429 -0.056246
vn 0.004242 0.999969 -0.004181
vn 0.196539 0.980071 -0.027894
vn 0.021882 0.999725 -0.005188
vn 0.202826 0.978607 0.034272
vn 0.029298 0.999542 0.007294
vn -0.008972 0.836848 -0.547349
vn 0.138829 0.973846 -0.179724
vn 0.308969 0.917417 -0.250679
vn 0.284677 0.958586 -0.002441
vn 0.004425 0.998718 -0.049989
vn -0.002686 0.999939 -0.008454
vn -0.079775 0.888485 -0.451857
vn 0.198828 0.965911 -0.165746
vn 0.018250 0.948210 0.317087
vn -0.472182 0.768944 -0.430952
vn -0.397839 0.915616 -0.057772
vn -0.657063 0.682485 -0.320048
vn 0.143040 0.858364 -0.492660
vn 0.535722 0.844356 0.002777
vn 0.466659 0.859218 0.209540
vn 0.451796 0.887234 0.093051
vn -0.154820 0.987121 0.040132
vn -0.244881 0.942289 0.228248
vn -0.037599 0.998657 0.034883
vn -0.070711 0.985717 0.152776
vn -0.208350 0.936644 0.281533
vn -0.077700 0.949828 0.302866
vn -0.070803 0.958281 0.276864
vn -0.042360 0.941496 0.334300
vn 0.005890 0.999939 0.006745
vn -0.011933 0.999573 0.025513
vn -0.011658 0.997375 0.071383
vn -0.003998 0.994293 0.106388
vn 0.000000 1.000000 0.000061
vn -0.518204 0.854946 -0.022614
vn -0.214148 0.967864 0.131565
vn -0.539964 0.841273 -0.025178
vn -0.012299 0.970061 0.242500
vn 0.711295 0.597156 0.370678
vn 0.201392 0.977905 0.055696
vn 0.483077 0.858974 -0.169561
vn 0.003632 0.903409 -0.428724
vn -0.526475 0.848018 -0.060305
vn -0.175481 0.984436 0.008271
vn -0.570208 0.741874 -0.352763
vn 0.045351 0.989990 -0.133457
vn 0.079928 0.979583 -0.184393
vn -0.401227 0.905942 -0.135075
vn 0.432783 0.819300 0.375988
vn -0.345042 0.818110 0.460005
vn 0.000305 0.999969 -0.001282
vn 0.000244 0.999969 -0.000214
vn -0.025208 0.864009 -0.502823
vn 0.000855 0.850703 -0.525590
vn 0.000000 0.850642 -0.525712
vn 0.168767 0.968108 -0.185034
vn -0.265603 0.942869 -0.200995
vn -0.103793 0.883206 -0.457320
vn -0.460891 0.699362 0.546281
vn -0.244606 0.850917 0.464797
vn 0.422437 0.800378 -0.425306
vn 0.529374 0.847774 -0.031587
vn 0.441847 0.778619 0.445509
vn 0.437300 0.882443 0.173193
vn -0.001007 0.952605 0.304147
vn 0.067080 0.950224 0.304147
vn 0.003357 0.936521 0.350505
vn 0.059084 0.938078 0.341258
vn 0.204779 0.924863 0.320414
vn 0.260201 0.933378 0.247047
vn 0.103641 0.965270 0.239784
vn 0.061159 0.993072 0.100284
vn 0.003479 0.993622 0.112552
vn 0.015381 0.996002 0.087680
vn 0.000031 1.000000 0.000122
vn 0.010926 0.999298 0.035798
vn 0.001038 0.999969 0.003143
vn 0.099338 0.993439 0.056520
vn 0.005860 0.999969 0.001984
vn 0.005066 0.999939 0.006867
vn 0.004028 0.999969 -0.004028
vn 0.023408 0.999695 -0.007263
vn 0.033906 0.999359 0.011292
vn -0.003815 0.999969 -0.001251
vn -0.095065 0.995025 -0.029420
vn -0.186956 0.982116 -0.021546
vn -0.057985 0.996918 0.052339
vn -0.001434 0.999969 0.001434
vn -0.443037 0.888058 -0.122562
vn -0.185797 0.926695 -0.326609
vn -0.597858 0.786493 -0.154790
vn -0.061586 0.986328 -0.152745
vn 0.647389 0.740593 0.179907
vn 0.225715 0.973968 -0.019776
vn 0.464309 0.822047 -0.329569
vn 0.023438 0.820582 -0.571001
vn -0.629688 0.774255 0.063021
vn -0.277200 0.937803 0.208930
vn -0.196478 0.940611 0.276772
vn -0.227119 0.811670 0.538133
vn -0.084567 0.995025 -0.052126
vn -0.025025 0.993011 -0.115329
vn -0.218696 0.738853 0.637349
vn 0.022645 0.698782 0.714927
vn -0.007477 0.994751 -0.102023
vn -0.074221 0.953459 -0.292184
vn -0.164373 0.767968 -0.619007
vn -0.220710 0.630543 -0.744072
vn -0.121372 0.901456 -0.415418
vn -0.390332 0.767296 -0.508805
vn 0.023591 0.810663 -0.584979
vn 0.096683 0.986206 -0.134251
vn -0.063143 0.996490 -0.054415
vn 0.153813 0.982452 0.105380
vn 0.221290 0.667562 0.710868
vn 0.143986 0.815302 0.560839
vn 0.414228 0.827815 0.378246
vn 0.221137 0.883816 0.412244
vn 0.076754 0.880093 0.468520
vn 0.027650 0.926450 0.375317
vn -0.030427 0.998871 0.036225
vn -0.047487 0.983734 0.173132
vn -0.026612 0.946104 0.322733
vn 0.037660 0.936949 0.347331
vn -0.089938 0.995422 -0.032167
vn -0.048494 0.989257 -0.137730
vn -0.285318 0.947844 -0.141942
vn 0.050630 0.977233 0.206000
vn 0.003357 0.998383 0.056307
vn -0.029878 0.995544 -0.089206
vn 0.030000 0.999084 -0.030366
vn 0.011200 0.999298 0.035005
vn 0.000305 0.999969 0.001068
vn 0.000092 1.000000 -0.000092
vn -0.121952 0.926969 -0.354717
vn 0.169988 0.970519 -0.170721
vn -0.113773 0.914579 -0.388012
vn 0.385144 0.875484 -0.291818
vn 0.030549 0.999054 -0.030244
vn -0.000031 1.000000 -0.000214
vn 0.120579 0.966063 -0.228339
vn -0.046205 0.941527 -0.333720
vn -0.137089 0.989471 -0.046266
vn -0.347575 0.935423 -0.064119
vn -0.135899 0.914029 -0.382153
vn -0.267983 0.871944 -0.409680
vn -0.572466 0.816370 -0.076083
vn -0.382305 0.920713 0.078158
vn -0.119053 0.985687 0.119083
vn -0.092380 0.896268 0.433699
vn -0.347026 0.807184 0.477462
vn -0.015625 0.999725 0.015625
vn -0.185736 0.972564 0.139897
vn -0.043367 0.819056 -0.572039
vn 0.416517 0.851375 -0.318827
vn 0.254799 0.953429 0.161290
vn 0.077639 0.901517 -0.425703
vn -0.087130 0.811243 -0.578143
vn -0.222907 0.651418 -0.725211
vn -0.240974 0.850795 -0.466933
vn -0.085391 0.933897 -0.347118
vn -0.445296 0.790429 0.420576
vn -0.367412 0.929411 -0.033692
vn -0.446303 0.812067 0.375896
vn -0.153539 0.754112 0.638508
vn 0.082308 0.905515 0.416242
vn -0.039003 0.886441 0.461165
vn 0.241890 0.677450 0.694632
vn 0.068606 0.766625 0.638386
vn -0.027314 0.999237 0.027314
vn -0.115421 0.967834 0.223457
vn 0.069216 0.909421 0.410047
vn 0.020142 0.973754 0.226661
vn 0.006500 0.986511 0.163427
vn -0.337870 0.941130 -0.007569
vn 0.534288 0.780419 0.324717
vn 0.338755 0.884457 0.320811
vn 0.402051 0.867244 0.293558
vn 0.347056 0.908475 0.232734
vn -0.093936 0.966948 0.236976
vn -0.014435 0.999878 0.000855
vn 0.002350 0.999969 0.007141
vn 0.294595 0.927244 0.231086
vn 0.279794 0.955077 0.097476
vn 0.099612 0.954039 0.282540
vn 0.000549 0.999969 0.001404
vn -0.008972 0.999939 0.001740
vn -0.000366 0.999969 -0.001099
vn -0.014100 0.999878 -0.001648
vn 0.002258 0.999969 0.006806
vn -0.018403 0.883175 0.468642
vn -0.003235 0.851161 0.524827
vn 0.013001 0.999908 0.001282
vn -0.001038 0.999969 0.001038
vn 0.139866 0.900052 0.412671
vn 0.014435 0.999268 0.034944
vn 0.001038 0.999969 0.003113
vn 0.010743 0.999939 -0.001648
vn 0.011841 0.999908 0.003937
vn 0.000031 1.000000 0.000092
vn -0.003937 0.999969 0.003937
vn 0.003937 0.999908 0.011841
vn -0.000244 0.999969 -0.001068
vn -0.000946 0.999969 -0.004273
vn -0.030702 0.901639 -0.431379
vn -0.028199 0.867672 -0.496323
vn -0.001923 0.999908 -0.011078
vn -0.003937 0.999664 -0.024903
vn -0.020966 0.846706 -0.531602
vn -0.026368 0.834742 -0.550005
vn -0.006500 0.998810 -0.048311
vn -0.009919 0.996368 -0.084292
vn -0.041292 0.820704 -0.569811
vn -0.023316 0.803980 -0.594134
vn 0.002686 0.996246 -0.086215
vn 0.018097 0.999390 -0.029633
vn 0.048677 0.818293 -0.572710
vn 0.157109 0.930326 -0.331278
vn 0.002869 0.999969 -0.002869
vn 0.075900 0.994812 -0.067293
vn 0.000732 0.999969 -0.000732
vn -0.233283 0.659902 -0.714194
vn -0.186377 0.782403 -0.594165
vn -0.057802 0.973998 -0.219001
vn -0.028260 0.998108 -0.054140
vn -0.049257 0.849300 -0.525590
vn -0.001923 0.854793 -0.518937
vn -0.004517 0.999969 0.000000
vn -0.001221 0.873501 0.486801
vn -0.014252 0.871792 0.489608
vn 0.030000 0.785730 0.617817
vn 0.030580 0.793085 0.608325
vn -0.007202 0.862270 0.506363
vn 0.001923 0.859645 0.510849
vn 0.033967 0.803461 0.594348
vn 0.026063 0.815607 0.577960
vn -0.003143 0.858303 -0.513077
vn 0.000885 0.860836 -0.508805
vn 0.374218 0.825007 -0.423444
vn 0.598254 0.747917 -0.287515
vn 0.420240 0.907224 0.016785
vn 0.722617 0.687918 0.067324
vn 0.001312 0.857326 0.514695
vn 0.038881 0.851741 0.522446
vn 0.022980 0.823542 0.566759
vn 0.037416 0.832484 0.552751
vn 0.416181 0.741874 0.525712
vn 0.460677 0.800470 0.383404
vn 0.146611 0.898129 0.414533
vn 0.027497 0.997345 0.067232
vn 0.005097 0.990234 0.139195
vn 0.007294 0.993103 0.116916
vn 0.005951 0.995941 0.089511
vn 0.004303 0.997681 0.067537
vn 0.004456 0.998718 0.050233
vn 0.007294 0.999512 0.029542
vn 0.001892 0.999969 0.005676
vn 0.293558 0.955046 -0.040773
vn 0.003113 0.999969 -0.000122
vn 0.309305 0.947356 0.082614
vn 0.002655 0.999969 0.000885
vn 0.066256 0.997497 0.024506
g Mesh_Mesh_Mesh_Plane_
usemtl 
s 1
f 1//1 2//1 3//2
f 1//1 3//2 4//1
f 5//1 1//1 4//1
f 5//1 4//1 6//1
f 4//1 3//2 7//2
f 4//1 7//2 8//1
f 6//1 4//1 8//1
f 6//1 8//1 9//1
f 10//1 5//1 6//1
f 10//1 6//1 11//1
f 12//1 10//1 11//1
f 12//1 11//1 13//1
f 11//1 6//1 9//1
f 11//1 9//1 14//1
f 13//1 11//1 14//1
f 13//1 14//1 15//1
f 8//1 7//2 16//1
f 8//1 16//1 17//1
f 9//1 8//1 17//1
f 9//1 17//1 18//1
f 17//1 16//1 19//2
f 17//1 19//2 20//1
f 18//1 17//1 20//1
f 18//1 20//1 21//1
f 14//1 9//1 18//1
f 14//1 18//1 22//1
f 15//1 14//1 22//1
f 15//1 22//1 23//1
f 22//1 18//1 21//1
f 22//1 21//1 24//1
f 23//1 22//1 24//1
f 23//1 24//1 25//1
f 26//1 12//1 13//1
f 26//1 13//1 27//1
f 28//1 26//1 27//1
f 28//1 27//1 29//1
f 27//1 13//1 15//1
f 27//1 15//1 30//1
f 29//1 27//1 30//1
f 29//1 30//1 31//1
f 32//1 28//1 29//1
f 32//1 29//1 33//1
f 34//1 32//1 33//1
f 34//1 33//1 35//1
f 33//1 29//1 31//1
f 33//1 31//1 36//1
f 35//1 33//1 36//1
f 35//1 36//1 37//1
f 30//1 15//1 23//1
f 30//1 23//1 38//1
f 31//1 30//1 38//1
f 31//1 38//1 39//1
f 38//1 23//1 25//1
f 38//1 25//1 40//1
f 39//1 38//1 40//1
f 39//1 40//1 41//1
f 36//1 31//1 39//1
f 36//1 39//1 42//1
f 37//1 36//1 42//1
f 37//1 42//1 43//1
f 42//1 39//1 41//1
f 42//1 41//1 44//1
f 43//1 42//1 44//1
f 43//1 44//1 45//1
f 20//1 19//2 46//1
f 20//1 46//1 47//1
f 21//1 20//1 47//1
f 21//1 47//1 48//1
f 47//1 46//1 49//1
f 47//1 49//1 50//1
f 48//1 47//1 50//1
f 48//1 50//1 51//1
f 24//1 21//1 48//1
f 24//1 48//1 52//1
f 25//1 24//1 52//1
f 25//1 52//1 53//1
f 52//1 48//1 51//1
f 52//1 51//1 54//1
f 53//1 52//1 54//1
f 53//1 54//1 55//1
f 50//1 49//1 56//1
f 50//1 56//1 57//1
f 51//1 50//1 57//1
f 51//1 57//1 58//1
f 57//1 56//1 59//1
f 57//1 59//1 60//1
f 58//1 57//1 60//1
f 58//1 60//1 61//1
f 54//1 51//1 58//1
f 54//1 58//1 62//1
f 55//1 54//1 62//1
f 55//1 62//1 63//1
f 62//1 58//1 61//1
f 62//1 61//1 64//1
f 63//1 62//1 64//1
f 63//1 64//1 65//1
f 40//1 25//1 53//1
f 40//1 53//1 66//1
f 41//1 40//1 66//1
f 41//1 66//1 67//1
f 66//1 53//1 55//1
f 66//1 55//1 68//1
f 67//1 66//1 68//1
f 67//1 68//1 69//1
f 44//1 41//1 67//1
f 44//1 67//1 70//1
f 45//1 44//1 70//1
f 45//1 70//1 71//1
f 70//1 67//1 69//1
f 70//1 69//1 72//1
f 71//1 70//1 72//1
f 71//1 72//1 73//1
f 68//1 55//1 63//1
f 68//1 63//1 74//1
f 69//1 68//1 74//1
f 69//1 74//1 75//1
f 74//1 63//1 65//1
f 74//1 65//1 76//1
f 75//1 74//1 76//1
f 75//1 76//1 77//1
f 72//1 69//1 75//1
f 72//1 75//1 78//1
f 73//1 72//1 78//1
f 73//1 78//1 79//1
f 78//1 75//1 77//1
f 78//1 77//1 80//1
f 79//1 78//1 80//1
f 79//1 80//1 81//1
f 82//1 34//1 35//1
f 82//1 35//1 83//1
f 84//1 82//1 83//1
f 84//1 83//1 85//1
f 83//1 35//1 37//1
f 83//1 37//1 86//1
f 85//1 83//1 86//1
f 85//1 86//1 87//1
f 88//1 84//1 85//1
f 88//1 85//1 89//2
f 90//2 88//1 89//2
f 90//2 89//2 91//2
f 89//2 85//1 87//1
f 89//2 87//1 92//2
f 91//2 89//2 92//2
f 91//2 92//2 93//2
f 86//1 37//1 43//1
f 86//1 43//1 94//1
f 87//1 86//1 94//1
f 87//1 94//1 95//1
f 94//1 43//1 45//1
f 94//1 45//1 96//1
f 95//1 94//1 96//1
f 95//1 96//1 97//1
f 92//2 87//1 95//1
f 92//2 95//1 98//2
f 93//2 92//2 98//2
f 93//2 98//2 99//2
f 98//2 95//1 97//1
f 98//2 97//1 100//2
f 99//2 98//2 100//2
f 99//2 100//2 101//1
f 102//1 90//2 91//2
f 102//1 91//2 103//1
f 104//1 102//1 103//1
f 104//1 103//1 105//1
f 103//1 91//2 93//2
f 103//1 93//2 106//1
f 105//1 103//1 106//1
f 105//1 106//1 107//1
f 108//1 104//1 105//1
f 108//1 105//1 109//1
f 110//1 108//1 109//1
f 110//1 109//1 111//1
f 109//1 105//1 107//1
f 109//1 107//1 112//1
f 111//1 109//1 112//1
f 111//1 112//1 113//1
f 106//1 93//2 99//2
f 106//1 99//2 114//1
f 107//1 106//1 114//1
f 107//1 114//1 115//1
f 114//1 99//2 101//1
f 114//1 101//1 116//2
f 115//1 114//1 116//2
f 115//1 116//2 117//1
f 112//1 107//1 115//1
f 112//1 115//1 118//1
f 113//1 112//1 118//1
f 113//1 118//1 119//1
f 118//1 115//1 117//1
f 118//1 117//1 120//1
f 119//1 118//1 120//1
f 119//1 120//1 121//1
f 96//1 45//1 71//1
f 96//1 71//1 122//1
f 97//1 96//1 122//1
f 97//1 122//1 123//1
f 122//1 71//1 73//1
f 122//1 73//1 124//1
f 123//1 122//1 124//1
f 123//1 124//1 125//1
f 100//2 97//1 123//1
f 100//2 123//1 126//2
f 101//1 100//2 126//2
f 101//1 126//2 127//2
f 126//2 123//1 125//1
f 126//2 125//1 128//1
f 127//2 126//2 128//1
f 127//2 128//1 129//1
f 124//1 73//1 79//1
f 124//1 79//1 130//1
f 125//1 124//1 130//1
f 125//1 130//1 131//1
f 130//1 79//1 81//1
f 130//1 81//1 132//1
f 131//1 130//1 132//1
f 131//1 132//1 133//1
f 128//1 125//1 131//1
f 128//1 131//1 134//1
f 129//1 128//1 134//1
f 129//1 134//1 135//1
f 134//1 131//1 133//1
f 134//1 133//1 136//1
f 135//1 134//1 136//1
f 135//1 136//1 137//1
f 116//2 101//1 127//2
f 116//2 127//2 138//1
f 117//1 116//2 138//1
f 117//1 138//1 139//1
f 138//1 127//2 129//1
f 138//1 129//1 140//1
f 139//1 138//1 140//1
f 139//1 140//1 141//1
f 120//1 117//1 139//1
f 120//1 139//1 142//1
f 121//1 120//1 142//1
f 121//1 142//1 143//1
f 142//1 139//1 141//1
f 142//1 141//1 144//1
f 143//1 142//1 144//1
f 143//1 144//1 145//1
f 140//1 129//1 135//1
f 140//1 135//1 146//1
f 141//1 140//1 146//1
f 141//1 146//1 147//1
f 146//1 135//1 137//1
f 146//1 137//1 148//3
f 147//1 146//1 148//3
f 147//1 148//3 149//4
f 144//1 141//1 147//1
f 144//1 147//1 150//1
f 145//1 144//1 150//1
f 145//1 150//1 151//1
f 150//1 147//1 149//4
f 150//1 149//4 152//1
f 151//1 150//1 152//1
f 151//1 152//1 153//1
f 60//1 59//1 154//1
f 60//1 154//1 155//1
f 61//1 60//1 155//1
f 61//1 155//1 156//1
f 155//1 154//1 157//1
f 155//1 157//1 158//1
f 156//1 155//1 158//1
f 156//1 158//1 159//1
f 64//1 61//1 156//1
f 64//1 156//1 160//1
f 65//1 64//1 160//1
f 65//1 160//1 161//1
f 160//1 156//1 159//1
f 160//1 159//1 162//1
f 161//1 160//1 162//1
f 161//1 162//1 163//1
f 158//1 157//1 164//1
f 158//1 164//1 165//1
f 159//1 158//1 165//1
f 159//1 165//1 166//1
f 165//1 164//1 167//1
f 165//1 167//1 168//2
f 166//1 165//1 168//2
f 166//1 168//2 169//2
f 162//1 159//1 166//1
f 162//1 166//1 170//1
f 163//1 162//1 170//1
f 163//1 170//1 171//1
f 170//1 166//1 169//2
f 170//1 169//2 172//2
f 171//1 170//1 172//2
f 171//1 172//2 173//2
f 76//1 65//1 161//1
f 76//1 161//1 174//1
f 77//1 76//1 174//1
f 77//1 174//1 175//1
f 174//1 161//1 163//1
f 174//1 163//1 176//1
f 175//1 174//1 176//1
f 175//1 176//1 177//1
f 80//1 77//1 175//1
f 80//1 175//1 178//1
f 81//1 80//1 178//1
f 81//1 178//1 179//1
f 178//1 175//1 177//1
f 178//1 177//1 180//1
f 179//1 178//1 180//1
f 179//1 180//1 181//1
f 176//1 163//1 171//1
f 176//1 171//1 182//1
f 177//1 176//1 182//1
f 177//1 182//1 183//1
f 182//1 171//1 173//2
f 182//1 173//2 184//2
f 183//1 182//1 184//2
f 183//1 184//2 185//2
f 180//1 177//1 183//1
f 180//1 183//1 186//1
f 181//1 180//1 186//1
f 181//1 186//1 187//1
f 186//1 183//1 185//2
f 186//1 185//2 188//2
f 187//1 186//1 188//2
f 187//1 188//2 189//2
f 168//2 167//1 190//2
f 168//2 190//2 191//2
f 169//2 168//2 191//2
f 169//2 191//2 192//1
f 191//2 190//2 193//1
f 191//2 193//1 194//1
f 192//1 191//2 194//1
f 192//1 194//1 195//1
f 172//2 169//2 192//1
f 172//2 192//1 196//2
f 173//2 172//2 196//2
f 173//2 196//2 197//1
f 196//2 192//1 195//1
f 196//2 195//1 198//1
f 197//1 196//2 198//1
f 197//1 198//1 199//1
f 194//1 193//1 200//1
f 194//1 200//1 201//1
f 195//1 194//1 201//1
f 195//1 201//1 202//1
f 201//1 200//1 203//1
f 201//1 203//1 204//1
f 202//1 201//1 204//1
f 202//1 204//1 205//1
f 198//1 195//1 202//1
f 198//1 202//1 206//1
f 199//1 198//1 206//1
f 199//1 206//1 207//1
f 206//1 202//1 205//1
f 206//1 205//1 208//1
f 207//1 206//1 208//1
f 207//1 208//1 209//1
f 184//2 173//2 197//1
f 184//2 197//1 210//2
f 185//2 184//2 210//2
f 185//2 210//2 211//1
f 210//2 197//1 199//1
f 210//2 199//1 212//1
f 211//1 210//2 212//1
f 211//1 212//1 213//1
f 188//2 185//2 211//1
f 188//2 211//1 214//2
f 189//2 188//2 214//2
f 189//2 214//2 215//5
f 214//2 211//1 213//1
f 214//2 213//1 216//6
f 215//5 214//2 216//6
f 215//5 216//6 217//7
f 212//1 199//1 207//1
f 212//1 207//1 218//1
f 213//1 212//1 218//1
f 213//1 218//1 219//8
f 218//1 207//1 209//1
f 218//1 209//1 220//1
f 219//8 218//1 220//1
f 219//8 220//1 221//9
f 216//6 213//1 219//8
f 216//6 219//8 222//10
f 217//7 216//6 222//10
f 217//7 222//10 223//11
f 222//10 219//8 221//9
f 222//10 221//9 224//12
f 223//11 222//10 224//12
f 223//11 224//12 225//13
f 132//1 81//1 179//1
f 132//1 179//1 226//1
f 133//1 132//1 226//1
f 133//1 226//1 227//1
f 226//1 179//1 181//1
f 226//1 181//1 228//1
f 227//1 226//1 228//1
f 227//1 228//1 229//1
f 136//1 133//1 227//1
f 136//1 227//1 230//1
f 137//1 136//1 230//1
f 137//1 230//1 231//14
f 230//1 227//1 229//1
f 230//1 229//1 232//15
f 231//14 230//1 232//15
f 231//14 232//15 233//16
f 228//1 181//1 187//1
f 228//1 187//1 234//1
f 229//1 228//1 234//1
f 229//1 234//1 235//17
f 234//1 187//1 189//2
f 234//1 189//2 236//1
f 235//17 234//1 236//1
f 235//17 236//1 237//18
f 232//15 229//1 235//17
f 232//15 235//17 238//19
f 233//16 232//15 238//19
f 233//16 238//19 239//20
f 238//19 235//17 237//18
f 238//19 237//18 240//21
f 239//20 238//19 240//21
f 239//20 240//21 241//22
f 148//3 137//1 231//14
f 148//3 231//14 242//23
f 149//4 148//3 242//23
f 149//4 242//23 243//24
f 242//23 231//14 233//16
f 242//23 233//16 244//25
f 243//24 242//23 244//25
f 243//24 244//25 245//26
f 152//1 149//4 243//24
f 152//1 243//24 246//27
f 153//1 152//1 246//27
f 153//1 246//27 247//28
f 246//27 243//24 245//26
f 246//27 245//26 248//29
f 247//28 246//27 248//29
f 247//28 248//29 249//30
f 244//25 233//16 239//20
f 244//25 239//20 250//31
f 245//26 244//25 250//31
f 245//26 250//31 251//32
f 250//31 239//20 241//22
f 250//31 241//22 252//33
f 251//32 250//31 252//33
f 251//32 252//33 253//34
f 248//29 245//26 251//32
f 248//29 251//32 254//35
f 249//30 248//29 254//35
f 249//30 254//35 255//36
f 254//35 251//32 253//34
f 254//35 253//34 256//37
f 255//36 254//35 256//37
f 255//36 256//37 257//38
f 236//1 189//2 215//5
f 236//1 215//5 258//39
f 237//18 236//1 258//39
f 237//18 258//39 259//40
f 258//39 215//5 217//7
f 258//39 217//7 260//41
f 259//40 258//39 260//41
f 259//40 260//41 261//42
f 240//21 237//18 259//40
f 240//21 259//40 262//43
f 241//22 240//21 262//43
f 241//22 262//43 263//44
f 262//43 259//40 261//42
f 262//43 261//42 264//45
f 263//44 262//43 264//45
f 263//44 264//45 265//46
f 260//41 217//7 223//11
f 260//41 223//11 266//47
f 261//42 260//41 266//47
f 261//42 266//47 267//48
f 266//47 223//11 225//13
f 266//47 225//13 268//49
f 267//48 266//47 268//49
f 267//48 268//49 269//50
f 264//45 261//42 267//48
f 264//45 267//48 270//51
f 265//46 264//45 270//51
f 265//46 270//51 271//52
f 270//51 267//48 269//50
f 270//51 269//50 272//53
f 271//52 270//51 272//53
f 271//52 272//53 273//54
f 252//33 241//22 263//44
f 252//33 263//44 274//55
f 253//34 252//33 274//55
f 253//34 274//55 275//1
f 274//55 263//44 265//46
f 274//55 265//46 276//56
f 275//1 274//55 276//56
f 275//1 276//56 277//1
f 256//37 253//34 275//1
f 256//37 275//1 278//1
f 257//38 256//37 278//1
f 257//38 278//1 279//57
f 278//1 275//1 277//1
f 278//1 277//1 280//1
f 279//57 278//1 280//1
f 279//57 280//1 281//58
f 276//56 265//46 271//52
f 276//56 271//52 282//59
f 277//1 276//56 282//59
f 277//1 282//59 283//1
f 282//59 271//52 273//54
f 282//59 273//54 284//1
f 283//1 282//59 284//1
f 283//1 284//1 285//1
f 280//1 277//1 283//1
f 280//1 283//1 286//1
f 281//58 280//1 286//1
f 281//58 286//1 287//60
f 286//1 283//1 285//1
f 286//1 285//1 288//61
f 287//60 286//1 288//61
f 287//60 288//61 289//62
f 290//1 110//1 111//1
f 290//1 111//1 291//1
f 292//1 290//1 291//1
f 292//1 291//1 293//1
f 291//1 111//1 113//1
f 291//1 113//1 294//1
f 293//1 291//1 294//1
f 293//1 294//1 295//1
f 296//1 292//1 293//1
f 296//1 293//1 297//1
f 298//1 296//1 297//1
f 298//1 297//1 299//1
f 297//1 293//1 295//1
f 297//1 295//1 300//1
f 299//1 297//1 300//1
f 299//1 300//1 301//1
f 294//1 113//1 119//1
f 294//1 119//1 302//1
f 295//1 294//1 302//1
f 295//1 302//1 303//1
f 302//1 119//1 121//1
f 302//1 121//1 304//1
f 303//1 302//1 304//1
f 303//1 304//1 305//1
f 300//1 295//1 303//1
f 300//1 303//1 306//1
f 301//1 300//1 306//1
f 301//1 306//1 307//1
f 306//1 303//1 305//1
f 306//1 305//1 308//1
f 307//1 306//1 308//1
f 307//1 308//1 309//1
f 310//1 298//1 299//1
f 310//1 299//1 311//1
f 312//1 310//1 311//1
f 312//1 311//1 313//1
f 311//1 299//1 301//1
f 311//1 301//1 314//1
f 313//1 311//1 314//1
f 313//1 314//1 315//1
f 316//1 312//1 313//1
f 316//1 313//1 317//1
f 318//1 316//1 317//1
f 318//1 317//1 319//1
f 317//1 313//1 315//1
f 317//1 315//1 320//1
f 319//1 317//1 320//1
f 319//1 320//1 321//1
f 314//1 301//1 307//1
f 314//1 307//1 322//1
f 315//1 314//1 322//1
f 315//1 322//1 323//1
f 322//1 307//1 309//1
f 322//1 309//1 324//63
f 323//1 322//1 324//63
f 323//1 324//63 325//64
f 320//1 315//1 323//1
f 320//1 323//1 326//1
f 321//1 320//1 326//1
f 321//1 326//1 327//1
f 326//1 323//1 325//64
f 326//1 325//64 328//65
f 327//1 326//1 328//65
f 327//1 328//65 329//66
f 304//1 121//1 143//1
f 304//1 143//1 330//1
f 305//1 304//1 330//1
f 305//1 330//1 331//1
f 330//1 143//1 145//1
f 330//1 145//1 332//1
f 331//1 330//1 332//1
f 331//1 332//1 333//1
f 308//1 305//1 331//1
f 308//1 331//1 334//1
f 309//1 308//1 334//1
f 309//1 334//1 335//67
f 334//1 331//1 333//1
f 334//1 333//1 336//1
f 335//67 334//1 336//1
f 335//67 336//1 337//68
f 332//1 145//1 151//1
f 332//1 151//1 338//1
f 333//1 332//1 338//1
f 333//1 338//1 339//1
f 338//1 151//1 153//1
f 338//1 153//1 340//1
f 339//1 338//1 340//1
f 339//1 340//1 341//1
f 336//1 333//1 339//1
f 336//1 339//1 342//69
f 337//68 336//1 342//69
f 337//68 342//69 343//70
f 342//69 339//1 341//1
f 342//69 341//1 344//1
f 343//70 342//69 344//1
f 343//70 344//1 345//71
f 324//63 309//1 335//67
f 324//63 335//67 346//72
f 325//64 324//63 346//72
f 325//64 346//72 347//73
f 346//72 335//67 337//68
f 346//72 337//68 348//74
f 347//73 346//72 348//74
f 347//73 348//74 349//75
f 328//65 325//64 347//73
f 328//65 347//73 350//76
f 329//66 328//65 350//76
f 329//66 350//76 351//77
f 350//76 347//73 349//75
f 350//76 349//75 352//78
f 351//77 350//76 352//78
f 351//77 352//78 353//79
f 348//74 337//68 343//70
f 348//74 343//70 354//80
f 349//75 348//74 354//80
f 349//75 354//80 355//81
f 354//80 343//70 345//71
f 354//80 345//71 356//82
f 355//81 354//80 356//82
f 355//81 356//82 357//83
f 352//78 349//75 355//81
f 352//78 355//81 358//84
f 353//79 352//78 358//84
f 353//79 358//84 359//85
f 358//84 355//81 357//83
f 358//84 357//83 360//86
f 359//85 358//84 360//86
f 359//85 360//86 361//87
f 362//1 318//1 319//1
f 362//1 319//1 363//1
f 364//1 362//1 363//1
f 364//1 363//1 365//1
f 363//1 319//1 321//1
f 363//1 321//1 366//1
f 365//1 363//1 366//1
f 365//1 366//1 367//1
f 368//1 364//1 365//1
f 368//1 365//1 369//1
f 370//2 368//1 369//1
f 370//2 369//1 371//1
f 369//1 365//1 367//1
f 369//1 367//1 372//1
f 371//1 369//1 372//1
f 371//1 372//1 373//1
f 366//1 321//1 327//1
f 366//1 327//1 374//1
f 367//1 366//1 374//1
f 367//1 374//1 375//1
f 374//1 327//1 329//66
f 374//1 329//66 376//88
f 375//1 374//1 376//88
f 375//1 376//88 377//89
f 372//1 367//1 375//1
f 372//1 375//1 378//1
f 373//1 372//1 378//1
f 373//1 378//1 379//1
f 378//1 375//1 377//89
f 378//1 377//89 380//90
f 379//1 378//1 380//90
f 379//1 380//90 381//91
f 382//1 370//2 371//1
f 382//1 371//1 383//1
f 384//1 382//1 383//1
f 384//1 383//1 385//1
f 383//1 371//1 373//1
f 383//1 373//1 386//1
f 385//1 383//1 386//1
f 385//1 386//1 387//1
f 388//1 384//1 385//1
f 388//1 385//1 389//1
f 390//1 388//1 389//1
f 390//1 389//1 391//1
f 389//1 385//1 387//1
f 389//1 387//1 392//1
f 391//1 389//1 392//1
f 391//1 392//1 393//1
f 386//1 373//1 379//1
f 386//1 379//1 394//1
f 387//1 386//1 394//1
f 387//1 394//1 395//1
f 394//1 379//1 381//91
f 394//1 381//91 396//1
f 395//1 394//1 396//1
f 395//1 396//1 397//1
f 392//1 387//1 395//1
f 392//1 395//1 398//1
f 393//1 392//1 398//1
f 393//1 398//1 399//1
f 398//1 395//1 397//1
f 398//1 397//1 400//1
f 399//1 398//1 400//1
f 399//1 400//1 401//1
f 376//88 329//66 351//77
f 376//88 351//77 402//92
f 377//89 376//88 402//92
f 377//89 402//92 403//93
f 402//92 351//77 353//79
f 402//92 353//79 404//94
f 403//93 402//92 404//94
f 403//93 404//94 405//95
f 380//90 377//89 403//93
f 380//90 403//93 406//96
f 381//91 380//90 406//96
f 381//91 406//96 407//97
f 406//96 403//93 405//95
f 406//96 405//95 408//98
f 407//97 406//96 408//98
f 407//97 408//98 409//99
f 404//94 353//79 359//85
f 404//94 359//85 410//100
f 405//95 404//94 410//100
f 405//95 410//100 411//101
f 410//100 359//85 361//87
f 410//100 361//87 412//102
f 411//101 410//100 412//102
f 411//101 412//102 413//103
f 408//98 405//95 411//101
f 408//98 411//101 414//104
f 409//99 408//98 414//104
f 409//99 414//104 415//105
f 414//104 411//101 413//103
f 414//104 413//103 416//106
f 415//105 414//104 416//106
f 415//105 416//106 417//107
f 396//1 381//91 407//97
f 396//1 407//97 418//108
f 397//1 396//1 418//108
f 397//1 418//108 419//1
f 418//108 407//97 409//99
f 418//108 409//99 420//109
f 419//1 418//108 420//109
f 419//1 420//109 421//110
f 400//1 397//1 419//1
f 400//1 419//1 422//1
f 401//1 400//1 422//1
f 401//1 422//1 423//1
f 422//1 419//1 421//110
f 422//1 421//110 424//1
f 423//1 422//1 424//1
f 423//1 424//1 425//1
f 420//109 409//99 415//105
f 420//109 415//105 426//111
f 421//110 420//109 426//111
f 421//110 426//111 427//112
f 426//111 415//105 417//107
f 426//111 417//107 428//113
f 427//112 426//111 428//113
f 427//112 428//113 429//114
f 424//1 421//110 427//112
f 424//1 427//112 430//1
f 425//1 424//1 430//1
f 425//1 430//1 431//1
f 430//1 427//112 429//114
f 430//1 429//114 432//1
f 431//1 430//1 432//1
f 431//1 432//1 433//1
f 340//1 153//1 247//28
f 340//1 247//28 434//115
f 341//1 340//1 434//115
f 341//1 434//115 435//116
f 434//115 247//28 249//30
f 434//115 249//30 436//117
f 435//116 434//115 436//117
f 435//116 436//117 437//118
f 344//1 341//1 435//116
f 344//1 435//116 438//119
f 345//71 344//1 438//119
f 345//71 438//119 439//120
f 438//119 435//116 437//118
f 438//119 437//118 440//121
f 439//120 438//119 440//121
f 439//120 440//121 441//122
f 436//117 249//30 255//36
f 436//117 255//36 442//123
f 437//118 436//117 442//123
f 437//118 442//123 443//124
f 442//123 255//36 257//38
f 442//123 257//38 444//125
f 443//124 442//123 444//125
f 443//124 444//125 445//126
f 440//121 437//118 443//124
f 440//121 443//124 446//127
f 441//122 440//121 446//127
f 441//122 446//127 447//128
f 446//127 443//124 445//126
f 446//127 445//126 448//129
f 447//128 446//127 448//129
f 447//128 448//129 449//130
f 356//82 345//71 439//120
f 356//82 439//120 450//131
f 357//83 356//82 450//131
f 357//83 450//131 451//132
f 450//131 439//120 441//122
f 450//131 441//122 452//133
f 451//132 450//131 452//133
f 451//132 452//133 453//134
f 360//86 357//83 451//132
f 360//86 451//132 454//135
f 361//87 360//86 454//135
f 361//87 454//135 455//136
f 454//135 451//132 453//134
f 454//135 453//134 456//137
f 455//136 454//135 456//137
f 455//136 456//137 457//138
f 452//133 441//122 447//128
f 452//133 447//128 458//139
f 453//134 452//133 458//139
f 453//134 458//139 459//140
f 458//139 447//128 449//130
f 458//139 449//130 460//1
f 459//140 458//139 460//1
f 459//140 460//1 461//1
f 456//137 453//134 459//140
f 456//137 459//140 462//141
f 457//138 456//137 462//141
f 457//138 462//141 463//142
f 462//141 459//140 461//1
f 462//141 461//1 464//1
f 463//142 462//141 464//1
f 463//142 464//1 465//143
f 444//125 257//38 279//57
f 444//125 279//57 466//144
f 445//126 444//125 466//144
f 445//126 466//144 467//145
f 466//144 279//57 281//58
f 466//144 281//58 468//146
f 467//145 466//144 468//146
f 467//145 468//146 469//147
f 448//129 445//126 467//145
f 448//129 467//145 470//148
f 449//130 448//129 470//148
f 449//130 470//148 471//149
f 470//148 467//145 469//147
f 470//148 469//147 472//150
f 471//149 470//148 472//150
f 471//149 472//150 473//151
f 468//146 281//58 287//60
f 468//146 287//60 474//152
f 469//147 468//146 474//152
f 469//147 474//152 475//153
f 474//152 287//60 289//62
f 474//152 289//62 476//154
f 475//153 474//152 476//154
f 475//153 476//154 477//155
f 472//150 469//147 475//153
f 472//150 475//153 478//156
f 473//151 472//150 478//156
f 473//151 478//156 479//157
f 478//156 475//153 477//155
f 478//156 477//155 480//158
f 479//157 478//156 480//158
f 479//157 480//158 481//159
f 460//1 449//130 471//149
f 460//1 471//149 482//160
f 461//1 460//1 482//160
f 461//1 482//160 483//161
f 482//160 471//149 473//151
f 482//160 473//151 484//162
f 483//161 482//160 484//162
f 483//161 484//162 485//163
f 464//1 461//1 483//161
f 464//1 483//161 486//1
f 465//143 464//1 486//1
f 465//143 486//1 487//1
f 486//1 483//161 485//163
f 486//1 485//163 488//164
f 487//1 486//1 488//164
f 487//1 488//164 489//165
f 484//162 473//151 479//157
f 484//162 479//157 490//166
f 485//163 484//162 490//166
f 485//163 490//166 491//167
f 490//166 479//157 481//159
f 490//166 481//159 492//168
f 491//167 490//166 492//168
f 491//167 492//168 493//169
f 488//164 485//163 491//167
f 488//164 491//167 494//170
f 489//165 488//164 494//170
f 489//165 494//170 495//171
f 494//170 491//167 493//169
f 494//170 493//169 496//172
f 495//171 494//170 496//172
f 495//171 496//172 497//173
f 412//102 361//87 455//136
f 412//102 455//136 498//174
f 413//103 412//102 498//174
f 413//103 498//174 499//175
f 498//174 455//136 457//138
f 498//174 457//138 500//176
f 499//175 498//174 500//176
f 499//175 500//176 501//177
f 416//106 413//103 499//175
f 416//106 499//175 502//178
f 417//107 416//106 502//178
f 417//107 502//178 503//179
f 502//178 499//175 501//177
f 502//178 501//177 504//180
f 503//179 502//178 504//180
f 503//179 504//180 505//181
f 500//176 457//138 463//142
f 500//176 463//142 506//182
f 501//177 500//176 506//182
f 501//177 506//182 507//183
f 506//182 463//142 465//143
f 506//182 465//143 508//184
f 507//183 506//182 508//184
f 507//183 508//184 509//1
f 504//180 501//177 507//183
f 504//180 507//183 510//185
f 505//181 504//180 510//185
f 505//181 510//185 511//186
f 510//185 507//183 509//1
f 510//185 509//1 512//1
f 511//186 510//185 512//1
f 511//186 512//1 513//1
f 428//113 417//107 503//179
f 428//113 503//179 514//187
f 429//114 428//113 514//187
f 429//114 514//187 515//188
f 514//187 503//179 505//181
f 514//187 505//181 516//189
f 515//188 514//187 516//189
f 515//188 516//189 517//1
f 432//1 429//114 515//188
f 432//1 515//188 518//1
f 433//1 432//1 518//1
f 433//1 518//1 519//1
f 518//1 515//188 517//1
f 518//1 517//1 520//1
f 519//1 518//1 520//1
f 519//1 520//1 521//1
f 516//189 505//181 511//186
f 516//189 511//186 522//1
f 517//1 516//189 522//1
f 517//1 522//1 523//1
f 522//1 511//186 513//1
f 522//1 513//1 524//1
f 523//1 522//1 524//1
f 523//1 524//1 525//1
f 520//1 517//1 523//1
f 520//1 523//1 526//1
f 521//1 520//1 526//1
f 521//1 526//1 527//1
f 526//1 523//1 525//1
f 526//1 525//1 528//1
f 527//1 526//1 528//1
f 527//1 528//1 529//1
f 508//184 465//143 487//1
f 508//184 487//1 530//1
f 509//1 508//184 530//1
f 509//1 530//1 531//1
f 530//1 487//1 489//165
f 530//1 489//165 532//190
f 531//1 530//1 532//190
f 531//1 532//190 533//1
f 512//1 509//1 531//1
f 512//1 531//1 534//1
f 513//1 512//1 534//1
f 513//1 534//1 535//1
f 534//1 531//1 533//1
f 534//1 533//1 536//1
f 535//1 534//1 536//1
f 535//1 536//1 537//1
f 532//190 489//165 495//171
f 532//190 495//171 538//191
f 533//1 532//190 538//191
f 533//1 538//191 539//1
f 538//191 495//171 497//173
f 538//191 497//173 540//192
f 539//1 538//191 540//192
f 539//1 540//192 541//1
f 536//1 533//1 539//1
f 536//1 539//1 542//1
f 537//1 536//1 542//1
f 537//1 542//1 543//1
f 542//1 539//1 541//1
f 542//1 541//1 544//1
f 543//1 542//1 544//1
f 543//1 544//1 545//1
f 524//1 513//1 535//1
f 524//1 535//1 546//1
f 525//1 524//1 546//1
f 525//1 546//1 547//1
f 546//1 535//1 537//1
f 546//1 537//1 548//1
f 547//1 546//1 548//1
f 547//1 548//1 549//1
f 528//1 525//1 547//1
f 528//1 547//1 550//1
f 529//1 528//1 550//1
f 529//1 550//1 551//1
f 550//1 547//1 549//1
f 550//1 549//1 552//1
f 551//1 550//1 552//1
f 551//1 552//1 553//1
f 548//1 537//1 543//1
f 548//1 543//1 554//1
f 549//1 548//1 554//1
f 549//1 554//1 555//1
f 554//1 543//1 545//1
f 554//1 545//1 556//1
f 555//1 554//1 556//1
f 555//1 556//1 557//1
f 552//1 549//1 555//1
f 552//1 555//1 558//1
f 553//1 552//1 558//1
f 553//1 558//1 559//1
f 558//1 555//1 557//1
f 558//1 557//1 560//1
f 559//1 558//1 560//1
f 559//1 560//1 561//1
f 204//1 203//1 562//1
f 204//1 562//1 563//1
f 205//1 204//1 563//1
f 205//1 563//1 564//1
f 563//1 562//1 565//2
f 563//1 565//2 566//1
f 564//1 563//1 566//1
f 564//1 566//1 567//1
f 208//1 205//1 564//1
f 208//1 564//1 568//1
f 209//1 208//1 568//1
f 209//1 568//1 569//1
f 568//1 564//1 567//1
f 568//1 567//1 570//1
f 569//1 568//1 570//1
f 569//1 570//1 571//1
f 566//1 565//2 572//1
f 566//1 572//1 573//1
f 567//1 566//1 573//1
f 567//1 573//1 574//1
f 573//1 572//1 575//1
f 573//1 575//1 576//1
f 574//1 573//1 576//1
f 574//1 576//1 577//1
f 570//1 567//1 574//1
f 570//1 574//1 578//1
f 571//1 570//1 578//1
f 571//1 578//1 579//1
f 578//1 574//1 577//1
f 578//1 577//1 580//1
f 579//1 578//1 580//1
f 579//1 580//1 581//1
f 220//1 209//1 569//1
f 220//1 569//1 582//1
f 221//9 220//1 582//1
f 221//9 582//1 583//1
f 582//1 569//1 571//1
f 582//1 571//1 584//1
f 583//1 582//1 584//1
f 583//1 584//1 585//1
f 224//12 221//9 583//1
f 224//12 583//1 586//1
f 225//13 224//12 586//1
f 225//13 586//1 587//193
f 586//1 583//1 585//1
f 586//1 585//1 588//2
f 587//193 586//1 588//2
f 587//193 588//2 589//194
f 584//1 571//1 579//1
f 584//1 579//1 590//1
f 585//1 584//1 590//1
f 585//1 590//1 591//1
f 590//1 579//1 581//1
f 590//1 581//1 592//1
f 591//1 590//1 592//1
f 591//1 592//1 593//1
f 588//2 585//1 591//1
f 588//2 591//1 594//1
f 589//194 588//2 594//1
f 589//194 594//1 595//195
f 594//1 591//1 593//1
f 594//1 593//1 596//1
f 595//195 594//1 596//1
f 595//195 596//1 597//196
f 576//1 575//1 598//2
f 576//1 598//2 599//2
f 577//1 576//1 599//2
f 577//1 599//2 600//2
f 599//2 598//2 601//1
f 599//2 601//1 602//1
f 600//2 599//2 602//1
f 600//2 602//1 603//1
f 580//1 577//1 600//2
f 580//1 600//2 604//2
f 581//1 580//1 604//2
f 581//1 604//2 605//2
f 604//2 600//2 603//1
f 604//2 603//1 606//1
f 605//2 604//2 606//1
f 605//2 606//1 607//1
f 602//1 601//1 608//1
f 602//1 608//1 609//1
f 603//1 602//1 609//1
f 603//1 609//1 610//1
f 609//1 608//1 611//1
f 609//1 611//1 612//1
f 610//1 609//1 612//1
f 610//1 612//1 613//1
f 606//1 603//1 610//1
f 606//1 610//1 614//1
f 607//1 606//1 614//1
f 607//1 614//1 615//1
f 614//1 610//1 613//1
f 614//1 613//1 616//1
f 615//1 614//1 616//1
f 615//1 616//1 617//1
f 592//1 581//1 605//2
f 592//1 605//2 618//1
f 593//1 592//1 618//1
f 593//1 618//1 619//2
f 618//1 605//2 607//1
f 618//1 607//1 620//1
f 619//2 618//1 620//1
f 619//2 620//1 621//1
f 596//1 593//1 619//2
f 596//1 619//2 622//1
f 597//196 596//1 622//1
f 597//196 622//1 623//197
f 622//1 619//2 621//1
f 622//1 621//1 624//1
f 623//197 622//1 624//1
f 623//197 624//1 625//1
f 620//1 607//1 615//1
f 620//1 615//1 626//1
f 621//1 620//1 626//1
f 621//1 626//1 627//1
f 626//1 615//1 617//1
f 626//1 617//1 628//1
f 627//1 626//1 628//1
f 627//1 628//1 629//1
f 624//1 621//1 627//1
f 624//1 627//1 630//1
f 625//1 624//1 630//1
f 625//1 630//1 631//1
f 630//1 627//1 629//1
f 630//1 629//1 632//1
f 631//1 630//1 632//1
f 631//1 632//1 633//1
f 268//49 225//13 587//193
f 268//49 587//193 634//198
f 269//50 268//49 634//198
f 269//50 634//198 635//199
f 634//198 587//193 589//194
f 634//198 589//194 636//200
f 635//199 634//198 636//200
f 635//199 636//200 637//201
f 272//53 269//50 635//199
f 272//53 635//199 638//202
f 273//54 272//53 638//202
f 273//54 638//202 639//203
f 638//202 635//199 637//201
f 638//202 637//201 640//204
f 639//203 638//202 640//204
f 639//203 640//204 641//205
f 636//200 589//194 595//195
f 636//200 595//195 642//206
f 637//201 636//200 642//206
f 637//201 642//206 643//207
f 642//206 595//195 597//196
f 642//206 597//196 644//208
f 643//207 642//206 644//208
f 643//207 644//208 645//209
f 640//204 637//201 643//207
f 640//204 643//207 646//210
f 641//205 640//204 646//210
f 641//205 646//210 647//211
f 646//210 643//207 645//209
f 646//210 645//209 648//212
f 647//211 646//210 648//212
f 647//211 648//212 649//213
f 284//1 273//54 639//203
f 284//1 639//203 650//214
f 285//1 284//1 650//214
f 285//1 650//214 651//215
f 650//214 639//203 641//205
f 650//214 641//205 652//216
f 651//215 650//214 652//216
f 651//215 652//216 653//217
f 288//61 285//1 651//215
f 288//61 651//215 654//218
f 289//62 288//61 654//218
f 289//62 654//218 655//219
f 654//218 651//215 653//217
f 654//218 653//217 656//220
f 655//219 654//218 656//220
f 655//219 656//220 657//221
f 652//216 641//205 647//211
f 652//216 647//211 658//222
f 653//217 652//216 658//222
f 653//217 658//222 659//223
f 658//222 647//211 649//213
f 658//222 649//213 660//224
f 659//223 658//222 660//224
f 659//223 660//224 661//225
f 656//220 653//217 659//223
f 656//220 659//223 662//226
f 657//221 656//220 662//226
f 657//221 662//226 663//227
f 662//226 659//223 661//225
f 662//226 661//225 664//228
f 663//227 662//226 664//228
f 663//227 664//228 665//229
f 644//208 597//196 623//197
f 644//208 623//197 666//230
f 645//209 644//208 666//230
f 645//209 666//230 667//231
f 666//230 623//197 625//1
f 666//230 625//1 668//1
f 667//231 666//230 668//1
f 667//231 668//1 669//1
f 648//212 645//209 667//231
f 648//212 667//231 670//232
f 649//213 648//212 670//232
f 649//213 670//232 671//233
f 670//232 667//231 669//1
f 670//232 669//1 672//1
f 671//233 670//232 672//1
f 671//233 672//1 673//1
f 668//1 625//1 631//1
f 668//1 631//1 674//1
f 669//1 668//1 674//1
f 669//1 674//1 675//1
f 674//1 631//1 633//1
f 674//1 633//1 676//1
f 675//1 674//1 676//1
f 675//1 676//1 677//1
f 672//1 669//1 675//1
f 672//1 675//1 678//1
f 673//1 672//1 678//1
f 673//1 678//1 679//234
f 678//1 675//1 677//1
f 678//1 677//1 680//235
f 679//234 678//1 680//235
f 679//234 680//235 681//236
f 660//224 649//213 671//233
f 660//224 671//233 682//237
f 661//225 660//224 682//237
f 661//225 682//237 683//238
f 682//237 671//233 673//1
f 682//237 673//1 684//239
f 683//238 682//237 684//239
f 683//238 684//239 685//240
f 664//228 661//225 683//238
f 664//228 683//238 686//241
f 665//229 664//228 686//241
f 665//229 686//241 687//242
f 686//241 683//238 685//240
f 686//241 685//240 688//243
f 687//242 686//241 688//243
f 687//242 688//243 689//1
f 684//239 673//1 679//234
f 684//239 679//234 690//244
f 685//240 684//239 690//244
f 685//240 690//244 691//245
f 690//244 679//234 681//236
f 690//244 681//236 692//246
f 691//245 690//244 692//246
f 691//245 692//246 693//247
f 688//243 685//240 691//245
f 688//243 691//245 694//248
f 689//1 688//243 694//248
f 689//1 694//248 695//249
f 694//248 691//245 693//247
f 694//248 693//247 696//250
f 695//249 694//248 696//250
f 695//249 696//250 697//251
f 612//1 611//1 698//1
f 612//1 698//1 699//1
f 613//1 612//1 699//1
f 613//1 699//1 700//1
f 699//1 698//1 701//1
f 699//1 701//1 702//1
f 700//1 699//1 702//1
f 700//1 702//1 703//1
f 616//1 613//1 700//1
f 616//1 700//1 704//1
f 617//1 616//1 704//1
f 617//1 704//1 705//1
f 704//1 700//1 703//1
f 704//1 703//1 706//1
f 705//1 704//1 706//1
f 705//1 706//1 707//1
f 702//1 701//1 708//1
f 702//1 708//1 709//1
f 703//1 702//1 709//1
f 703//1 709//1 710//1
f 709//1 708//1 711//1
f 709//1 711//1 712//1
f 710//1 709//1 712//1
f 710//1 712//1 713//1
f 706//1 703//1 710//1
f 706//1 710//1 714//1
f 707//1 706//1 714//1
f 707//1 714//1 715//1
f 714//1 710//1 713//1
f 714//1 713//1 716//1
f 715//1 714//1 716//1
f 715//1 716//1 717//1
f 628//1 617//1 705//1
f 628//1 705//1 718//1
f 629//1 628//1 718//1
f 629//1 718//1 719//1
f 718//1 705//1 707//1
f 718//1 707//1 720//1
f 719//1 718//1 720//1
f 719//1 720//1 721//1
f 632//1 629//1 719//1
f 632//1 719//1 722//1
f 633//1 632//1 722//1
f 633//1 722//1 723//1
f 722//1 719//1 721//1
f 722//1 721//1 724//1
f 723//1 722//1 724//1
f 723//1 724//1 725//1
f 720//1 707//1 715//1
f 720//1 715//1 726//1
f 721//1 720//1 726//1
f 721//1 726//1 727//1
f 726//1 715//1 717//1
f 726//1 717//1 728//1
f 727//1 726//1 728//1
f 727//1 728//1 729//1
f 724//1 721//1 727//1
f 724//1 727//1 730//1
f 725//1 724//1 730//1
f 725//1 730//1 731//1
f 730//1 727//1 729//1
f 730//1 729//1 732//1
f 731//1 730//1 732//1
f 731//1 732//1 733//1
f 712//1 711//1 734//1
f 712//1 734//1 735//1
f 713//1 712//1 735//1
f 713//1 735//1 736//1
f 735//1 734//1 737//1
f 735//1 737//1 738//1
f 736//1 735//1 738//1
f 736//1 738//1 739//1
f 716//1 713//1 736//1
f 716//1 736//1 740//1
f 717//1 716//1 740//1
f 717//1 740//1 741//1
f 740//1 736//1 739//1
f 740//1 739//1 742//1
f 741//1 740//1 742//1
f 741//1 742//1 743//1
f 738//1 737//1 744//1
f 738//1 744//1 745//1
f 739//1 738//1 745//1
f 739//1 745//1 746//1
f 745//1 744//1 747//1
f 745//1 747//1 748//1
f 746//1 745//1 748//1
f 746//1 748//1 749//1
f 742//1 739//1 746//1
f 742//1 746//1 750//1
f 743//1 742//1 750//1
f 743//1 750//1 751//1
f 750//1 746//1 749//1
f 750//1 749//1 752//1
f 751//1 750//1 752//1
f 751//1 752//1 753//1
f 728//1 717//1 741//1
f 728//1 741//1 754//1
f 729//1 728//1 754//1
f 729//1 754//1 755//1
f 754//1 741//1 743//1
f 754//1 743//1 756//1
f 755//1 754//1 756//1
f 755//1 756//1 757//1
f 732//1 729//1 755//1
f 732//1 755//1 758//1
f 733//1 732//1 758//1
f 733//1 758//1 759//1
f 758//1 755//1 757//1
f 758//1 757//1 760//1
f 759//1 758//1 760//1
f 759//1 760//1 761//1
f 756//1 743//1 751//1
f 756//1 751//1 762//1
f 757//1 756//1 762//1
f 757//1 762//1 763//1
f 762//1 751//1 753//1
f 762//1 753//1 764//1
f 763//1 762//1 764//1
f 763//1 764//1 765//1
f 760//1 757//1 763//1
f 760//1 763//1 766//1
f 761//1 760//1 766//1
f 761//1 766//1 767//1
f 766//1 763//1 765//1
f 766//1 765//1 768//1
f 767//1 766//1 768//1
f 767//1 768//1 769//1
f 676//1 633//1 723//1
f 676//1 723//1 770//1
f 677//1 676//1 770//1
f 677//1 770//1 771//252
f 770//1 723//1 725//1
f 770//1 725//1 772//1
f 771//252 770//1 772//1
f 771//252 772//1 773//253
f 680//235 677//1 771//252
f 680//235 771//252 774//254
f 681//236 680//235 774//254
f 681//236 774//254 775//255
f 774//254 771//252 773//253
f 774//254 773//253 776//256
f 775//255 774//254 776//256
f 775//255 776//256 777//257
f 772//1 725//1 731//1
f 772//1 731//1 778//1
f 773//253 772//1 778//1
f 773//253 778//1 779//258
f 778//1 731//1 733//1
f 778//1 733//1 780//1
f 779//258 778//1 780//1
f 779//258 780//1 781//1
f 776//256 773//253 779//258
f 776//256 779//258 782//259
f 777//257 776//256 782//259
f 777//257 782//259 783//260
f 782//259 779//258 781//1
f 782//259 781//1 784//261
f 783//260 782//259 784//261
f 783//260 784//261 785//262
f 692//246 681//236 775//255
f 692//246 775//255 786//263
f 693//247 692//246 786//263
f 693//247 786//263 787//264
f 786//263 775//255 777//257
f 786//263 777//257 788//265
f 787//264 786//263 788//265
f 787//264 788//265 789//266
f 696//250 693//247 787//264
f 696//250 787//264 790//267
f 697//251 696//250 790//267
f 697//251 790//267 791//268
f 790//267 787//264 789//266
f 790//267 789//266 792//269
f 791//268 790//267 792//269
f 791//268 792//269 793//270
f 788//265 777//257 783//260
f 788//265 783//260 794//271
f 789//266 788//265 794//271
f 789//266 794//271 795//272
f 794//271 783//260 785//262
f 794//271 785//262 796//273
f 795//272 794//271 796//273
f 795//272 796//273 797//274
f 792//269 789//266 795//272
f 792//269 795//272 798//275
f 793//270 792//269 798//275
f 793//270 798//275 799//276
f 798//275 795//272 797//274
f 798//275 797//274 800//277
f 799//276 798//275 800//277
f 799//276 800//277 801//278
f 780//1 733//1 759//1
f 780//1 759//1 802//1
f 781//1 780//1 802//1
f 781//1 802//1 803//1
f 802//1 759//1 761//1
f 802//1 761//1 804//1
f 803//1 802//1 804//1
f 803//1 804//1 805//1
f 784//261 781//1 803//1
f 784//261 803//1 806//1
f 785//262 784//261 806//1
f 785//262 806//1 807//279
f 806//1 803//1 805//1
f 806//1 805//1 808//1
f 807//279 806//1 808//1
f 807//279 808//1 809//1
f 804//1 761//1 767//1
f 804//1 767//1 810//1
f 805//1 804//1 810//1
f 805//1 810//1 811//1
f 810//1 767//1 769//1
f 810//1 769//1 812//1
f 811//1 810//1 812//1
f 811//1 812//1 813//1
f 808//1 805//1 811//1
f 808//1 811//1 814//1
f 809//1 808//1 814//1
f 809//1 814//1 815//1
f 814//1 811//1 813//1
f 814//1 813//1 816//1
f 815//1 814//1 816//1
f 815//1 816//1 817//1
f 796//273 785//262 807//279
f 796//273 807//279 818//280
f 797//274 796//273 818//280
f 797//274 818//280 819//281
f 818//280 807//279 809//1
f 818//280 809//1 820//1
f 819//281 818//280 820//1
f 819//281 820//1 821//1
f 800//277 797//274 819//281
f 800//277 819//281 822//282
f 801//278 800//277 822//282
f 801//278 822//282 823//283
f 822//282 819//281 821//1
f 822//282 821//1 824//1
f 823//283 822//282 824//1
f 823//283 824//1 825//1
f 820//1 809//1 815//1
f 820//1 815//1 826//1
f 821//1 820//1 826//1
f 821//1 826//1 827//1
f 826//1 815//1 817//1
f 826//1 817//1 828//1
f 827//1 826//1 828//1
f 827//1 828//1 829//1
f 824//1 821//1 827//1
f 824//1 827//1 830//1
f 825//1 824//1 830//1
f 825//1 830//1 831//1
f 830//1 827//1 829//1
f 830//1 829//1 832//1
f 831//1 830//1 832//1
f 831//1 832//1 833//1
f 476//154 289//62 655//219
f 476//154 655//219 834//284
f 477//155 476//154 834//284
f 477//155 834//284 835//285
f 834//284 655//219 657//221
f 834//284 657//221 836//286
f 835//285 834//284 836//286
f 835//285 836//286 837//287
f 480//158 477//155 835//285
f 480//158 835//285 838//288
f 481//159 480//158 838//288
f 481//159 838//288 839//289
f 838//288 835//285 837//287
f 838//288 837//287 840//290
f 839//289 838//288 840//290
f 839//289 840//290 841//291
f 836//286 657//221 663//227
f 836//286 663//227 842//292
f 837//287 836//286 842//292
f 837//287 842//292 843//293
f 842//292 663//227 665//229
f 842//292 665//229 844//294
f 843//293 842//292 844//294
f 843//293 844//294 845//295
f 840//290 837//287 843//293
f 840//290 843//293 846//296
f 841//291 840//290 846//296
f 841//291 846//296 847//297
f 846//296 843//293 845//295
f 846//296 845//295 848//298
f 847//297 846//296 848//298
f 847//297 848//298 849//299
f 492//168 481//159 839//289
f 492//168 839//289 850//300
f 493//169 492//168 850//300
f 493//169 850//300 851//301
f 850//300 839//289 841//291
f 850//300 841//291 852//302
f 851//301 850//300 852//302
f 851//301 852//302 853//303
f 496//172 493//169 851//301
f 496//172 851//301 854//304
f 497//173 496//172 854//304
f 497//173 854//304 855//305
f 854//304 851//301 853//303
f 854//304 853//303 856//306
f 855//305 854//304 856//306
f 855//305 856//306 857//1
f 852//302 841//291 847//297
f 852//302 847//297 858//307
f 853//303 852//302 858//307
f 853//303 858//307 859//2
f 858//307 847//297 849//299
f 858//307 849//299 860//308
f 859//2 858//307 860//308
f 859//2 860//308 861//1
f 856//306 853//303 859//2
f 856//306 859//2 862//1
f 857//1 856//306 862//1
f 857//1 862//1 863//1
f 862//1 859//2 861//1
f 862//1 861//1 864//1
f 863//1 862//1 864//1
f 863//1 864//1 865//1
f 844//294 665//229 687//242
f 844//294 687//242 866//309
f 845//295 844//294 866//309
f 845//295 866//309 867//1
f 866//309 687//242 689//1
f 866//309 689//1 868//1
f 867//1 866//309 868//1
f 867//1 868//1 869//1
f 848//298 845//295 867//1
f 848//298 867//1 870//310
f 849//299 848//298 870//310
f 849//299 870//310 871//311
f 870//310 867//1 869//1
f 870//310 869//1 872//1
f 871//311 870//310 872//1
f 871//311 872//1 873//1
f 868//1 689//1 695//249
f 868//1 695//249 874//312
f 869//1 868//1 874//312
f 869//1 874//312 875//313
f 874//312 695//249 697//251
f 874//312 697//251 876//314
f 875//313 874//312 876//314
f 875//313 876//314 877//315
f 872//1 869//1 875//313
f 872//1 875//313 878//316
f 873//1 872//1 878//316
f 873//1 878//316 879//317
f 878//316 875//313 877//315
f 878//316 877//315 880//318
f 879//317 878//316 880//318
f 879//317 880//318 881//319
f 860//308 849//299 871//311
f 860//308 871//311 882//1
f 861//1 860//308 882//1
f 861//1 882//1 883//1
f 882//1 871//311 873//1
f 882//1 873//1 884//1
f 883//1 882//1 884//1
f 883//1 884//1 885//1
f 864//1 861//1 883//1
f 864//1 883//1 886//1
f 865//1 864//1 886//1
f 865//1 886//1 887//1
f 886//1 883//1 885//1
f 886//1 885//1 888//1
f 887//1 886//1 888//1
f 887//1 888//1 889//1
f 884//1 873//1 879//317
f 884//1 879//317 890//320
f 885//1 884//1 890//320
f 885//1 890//320 891//321
f 890//320 879//317 881//319
f 890//320 881//319 892//322
f 891//321 890//320 892//322
f 891//321 892//322 893//323
f 888//1 885//1 891//321
f 888//1 891//321 894//324
f 889//1 888//1 894//324
f 889//1 894//324 895//325
f 894//324 891//321 893//323
f 894//324 893//323 896//326
f 895//325 894//324 896//326
f 895//325 896//326 897//327
f 540//192 497//173 855//305
f 540//192 855//305 898//1
f 541//1 540//192 898//1
f 541//1 898//1 899//1
f 898//1 855//305 857//1
f 898//1 857//1 900//1
f 899//1 898//1 900//1
f 899//1 900//1 901//1
f 544//1 541//1 899//1
f 544//1 899//1 902//1
f 545//1 544//1 902//1
f 545//1 902//1 903//1
f 902//1 899//1 901//1
f 902//1 901//1 904//1
f 903//1 902//1 904//1
f 903//1 904//1 905//1
f 900//1 857//1 863//1
f 900//1 863//1 906//1
f 901//1 900//1 906//1
f 901//1 906//1 907//1
f 906//1 863//1 865//1
f 906//1 865//1 908//1
f 907//1 906//1 908//1
f 907//1 908//1 909//1
f 904//1 901//1 907//1
f 904//1 907//1 910//1
f 905//1 904//1 910//1
f 905//1 910//1 911//1
f 910//1 907//1 909//1
f 910//1 909//1 912//1
f 911//1 910//1 912//1
f 911//1 912//1 913//1
f 556//1 545//1 903//1
f 556//1 903//1 914//1
f 557//1 556//1 914//1
f 557//1 914//1 915//1
f 914//1 903//1 905//1
f 914//1 905//1 916//1
f 915//1 914//1 916//1
f 915//1 916//1 917//1
f 560//1 557//1 915//1
f 560//1 915//1 918//1
f 561//1 560//1 918//1
f 561//1 918//1 919//1
f 918//1 915//1 917//1
f 918//1 917//1 920//1
f 919//1 918//1 920//1
f 919//1 920//1 921//1
f 916//1 905//1 911//1
f 916//1 911//1 922//1
f 917//1 916//1 922//1
f 917//1 922//1 923//1
f 922//1 911//1 913//1
f 922//1 913//1 924//1
f 923//1 922//1 924//1
f 923//1 924//1 925//1
f 920//1 917//1 923//1
f 920//1 923//1 926//1
f 921//1 920//1 926//1
f 921//1 926//1 927//1
f 926//1 923//1 925//1
f 926//1 925//1 928//1
f 927//1 926//1 928//1
f 927//1 928//1 929//1
f 908//1 865//1 887//1
f 908//1 887//1 930//1
f 909//1 908//1 930//1
f 909//1 930//1 931//1
f 930//1 887//1 889//1
f 930//1 889//1 932//1
f 931//1 930//1 932//1
f 931//1 932//1 933//1
f 912//1 909//1 931//1
f 912//1 931//1 934//1
f 913//1 912//1 934//1
f 913//1 934//1 935//1
f 934//1 931//1 933//1
f 934//1 933//1 936//1
f 935//1 934//1 936//1
f 935//1 936//1 937//1
f 932//1 889//1 895//325
f 932//1 895//325 938//328
f 933//1 932//1 938//328
f 933//1 938//328 939//1
f 938//328 895//325 897//327
f 938//328 897//327 940//329
f 939//1 938//328 940//329
f 939//1 940//329 941//330
f 936//1 933//1 939//1
f 936//1 939//1 942//1
f 937//1 936//1 942//1
f 937//1 942//1 943//1
f 942//1 939//1 941//330
f 942//1 941//330 944//1
f 943//1 942//1 944//1
f 943//1 944//1 945//1
f 924//1 913//1 935//1
f 924//1 935//1 946//1
f 925//1 924//1 946//1
f 925//1 946//1 947//1
f 946//1 935//1 937//1
f 946//1 937//1 948//1
f 947//1 946//1 948//1
f 947//1 948//1 949//1
f 928//1 925//1 947//1
f 928//1 947//1 950//1
f 929//1 928//1 950//1
f 929//1 950//1 951//1
f 950//1 947//1 949//1
f 950//1 949//1 952//1
f 951//1 950//1 952//1
f 951//1 952//1 953//1
f 948//1 937//1 943//1
f 948//1 943//1 954//1
f 949//1 948//1 954//1
f 949//1 954//1 955//1
f 954//1 943//1 945//1
f 954//1 945//1 956//1
f 955//1 954//1 956//1
f 955//1 956//1 957//1
f 952//1 949//1 955//1
f 952//1 955//1 958//1
f 953//1 952//1 958//1
f 953//1 958//1 959//1
f 958//1 955//1 957//1
f 958//1 957//1 960//1
f 959//1 958//1 960//1
f 959//1 960//1 961//1
f 876//314 697//251 791//268
f 876//314 791//268 962//331
f 877//315 876//314 962//331
f 877//315 962//331 963//332
f 962//331 791//268 793//270
f 962//331 793//270 964//333
f 963//332 962//331 964//333
f 963//332 964//333 965//334
f 880//318 877//315 963//332
f 880//318 963//332 966//335
f 881//319 880//318 966//335
f 881//319 966//335 967//336
f 966//335 963//332 965//334
f 966//335 965//334 968//337
f 967//336 966//335 968//337
f 967//336 968//337 969//1
f 964//333 793//270 799//276
f 964//333 799//276 970//338
f 965//334 964//333 970//338
f 965//334 970//338 971//339
f 970//338 799//276 801//278
f 970//338 801//278 972//340
f 971//339 970//338 972//340
f 971//339 972//340 973//341
f 968//337 965//334 971//339
f 968//337 971//339 974//342
f 969//1 968//337 974//342
f 969//1 974//342 975//343
f 974//342 971//339 973//341
f 974//342 973//341 976//344
f 975//343 974//342 976//344
f 975//343 976//344 977//345
f 892//322 881//319 967//336
f 892//322 967//336 978//346
f 893//323 892//322 978//346
f 893//323 978//346 979//347
f 978//346 967//336 969//1
f 978//346 969//1 980//1
f 979//347 978//346 980//1
f 979//347 980//1 981//1
f 896//326 893//323 979//347
f 896//326 979//347 982//348
f 897//327 896//326 982//348
f 897//327 982//348 983//349
f 982//348 979//347 981//1
f 982//348 981//1 984//350
f 983//349 982//348 984//350
f 983//349 984//350 985//351
f 980//1 969//1 975//343
f 980//1 975//343 986//352
f 981//1 980//1 986//352
f 981//1 986//352 987//353
f 986//352 975//343 977//345
f 986//352 977//345 988//354
f 987//353 986//352 988//354
f 987//353 988//354 989//355
f 984//350 981//1 987//353
f 984//350 987//353 990//356
f 985//351 984//350 990//356
f 985//351 990//356 991//357
f 990//356 987//353 989//355
f 990//356 989//355 992//358
f 991//357 990//356 992//358
f 991//357 992//358 993//359
f 972//340 801//278 823//283
f 972//340 823//283 994//360
f 973//341 972//340 994//360
f 973//341 994//360 995//361
f 994//360 823//283 825//1
f 994//360 825//1 996//1
f 995//361 994//360 996//1
f 995//361 996//1 997//1
f 976//344 973//341 995//361
f 976//344 995//361 998//362
f 977//345 976//344 998//362
f 977//345 998//362 999//363
f 998//362 995//361 997//1
f 998//362 997//1 1000//1
f 999//363 998//362 1000//1
f 999//363 1000//1 1001//1
f 996//1 825//1 831//1
f 996//1 831//1 1002//1
f 997//1 996//1 1002//1
f 997//1 1002//1 1003//1
f 1002//1 831//1 833//1
f 1002//1 833//1 1004//1
f 1003//1 1002//1 1004//1
f 1003//1 1004//1 1005//1
f 1000//1 997//1 1003//1
f 1000//1 1003//1 1006//1
f 1001//1 1000//1 1006//1
f 1001//1 1006//1 1007//1
f 1006//1 1003//1 1005//1
f 1006//1 1005//1 1008//1
f 1007//1 1006//1 1008//1
f 1007//1 1008//1 1009//1
f 988//354 977//345 999//363
f 988//354 999//363 1010//364
f 989//355 988//354 1010//364
f 989//355 1010//364 1011//365
f 1010//364 999//363 1001//1
f 1010//364 1001//1 1012//1
f 1011//365 1010//364 1012//1
f 1011//365 1012//1 1013//1
f 992//358 989//355 1011//365
f 992//358 1011//365 1014//366
f 993//359 992//358 1014//366
f 993//359 1014//366 1015//1
f 1014//366 1011//365 1013//1
f 1014//366 1013//1 1016//1
f 1015//1 1014//366 1016//1
f 1015//1 1016//1 1017//1
f 1012//1 1001//1 1007//1
f 1012//1 1007//1 1018//1
f 1013//1 1012//1 1018//1
f 1013//1 1018//1 1019//1
f 1018//1 1007//1 1009//1
f 1018//1 1009//1 1020//1
f 1019//1 1018//1 1020//1
f 1019//1 1020//1 1021//1
f 1016//1 1013//1 1019//1
f 1016//1 1019//1 1022//1
f 1017//1 1016//1 1022//1
f 1017//1 1022//1 1023//1
f 1022//1 1019//1 1021//1
f 1022//1 1021//1 1024//1
f 1023//1 1022//1 1024//1
f 1023//1 1024//1 1025//1
f 940//329 897//327 983//349
f 940//329 983//349 1026//367
f 941//330 940//329 1026//367
f 941//330 1026//367 1027//368
f 1026//367 983//349 985//351
f 1026//367 985//351 1028//369
f 1027//368 1026//367 1028//369
f 1027//368 1028//369 1029//370
f 944//1 941//330 1027//368
f 944//1 1027//368 1030//1
f 945//1 944//1 1030//1
f 945//1 1030//1 1031//1
f 1030//1 1027//368 1029//370
f 1030//1 1029//370 1032//1
f 1031//1 1030//1 1032//1
f 1031//1 1032//1 1033//1
f 1028//369 985//351 991//357
f 1028//369 991//357 1034//371
f 1029//370 1028//369 1034//371
f 1029//370 1034//371 1035//1
f 1034//371 991//357 993//359
f 1034//371 993//359 1036//1
f 1035//1 1034//371 1036//1
f 1035//1 1036//1 1037//1
f 1032//1 1029//370 1035//1
f 1032//1 1035//1 1038//1
f 1033//1 1032//1 1038//1
f 1033//1 1038//1 1039//1
f 1038//1 1035//1 1037//1
f 1038//1 1037//1 1040//1
f 1039//1 1038//1 1040//1
f 1039//1 1040//1 1041//1
f 956//1 945//1 1031//1
f 956//1 1031//1 1042//1
f 957//1 956//1 1042//1
f 957//1 1042//1 1043//1
f 1042//1 1031//1 1033//1
f 1042//1 1033//1 1044//1
f 1043//1 1042//1 1044//1
f 1043//1 1044//1 1045//1
f 960//1 957//1 1043//1
f 960//1 1043//1 1046//1
f 961//1 960//1 1046//1
f 961//1 1046//1 1047//1
f 1046//1 1043//1 1045//1
f 1046//1 1045//1 1048//1
f 1047//1 1046//1 1048//1
f 1047//1 1048//1 1049//1
f 1044//1 1033//1 1039//1
f 1044//1 1039//1 1050//1
f 1045//1 1044//1 1050//1
f 1045//1 1050//1 1051//1
f 1050//1 1039//1 1041//1
f 1050//1 1041//1 1052//1
f 1051//1 1050//1 1052//1
f 1051//1 1052//1 1053//1
f 1048//1 1045//1 1051//1
f 1048//1 1051//1 1054//1
f 1049//1 1048//1 1054//1
f 1049//1 1054//1 1055//1
f 1054//1 1051//1 1053//1
f 1054//1 1053//1 1056//1
f 1055//1 1054//1 1056//1
f 1055//1 1056//1 1057//1
f 1036//1 993//359 1015//1
f 1036//1 1015//1 1058//1
f 1037//1 1036//1 1058//1
f 1037//1 1058//1 1059//1
f 1058//1 1015//1 1017//1
f 1058//1 1017//1 1060//1
f 1059//1 1058//1 1060//1
f 1059//1 1060//1 1061//1
f 1040//1 1037//1 1059//1
f 1040//1 1059//1 1062//1
f 1041//1 1040//1 1062//1
f 1041//1 1062//1 1063//1
f 1062//1 1059//1 1061//1
f 1062//1 1061//1 1064//1
f 1063//1 1062//1 1064//1
f 1063//1 1064//1 1065//1
f 1060//1 1017//1 1023//1
f 1060//1 1023//1 1066//1
f 1061//1 1060//1 1066//1
f 1061//1 1066//1 1067//1
f 1066//1 1023//1 1025//1
f 1066//1 1025//1 1068//1
f 1067//1 1066//1 1068//1
f 1067//1 1068//1 1069//1
f 1064//1 1061//1 1067//1
f 1064//1 1067//1 1070//1
f 1065//1 1064//1 1070//1
f 1065//1 1070//1 1071//1
f 1070//1 1067//1 1069//1
f 1070//1 1069//1 1072//1
f 1071//1 1070//1 1072//1
f 1071//1 1072//1 1073//1
f 1052//1 1041//1 1063//1
f 1052//1 1063//1 1074//1
f 1053//1 1052//1 1074//1
f 1053//1 1074//1 1075//1
f 1074//1 1063//1 1065//1
f 1074//1 1065//1 1076//1
f 1075//1 1074//1 1076//1
f 1075//1 1076//1 1077//1
f 1056//1 1053//1 1075//1
f 1056//1 1075//1 1078//1
f 1057//1 1056//1 1078//1
f 1057//1 1078//1 1079//1
f 1078//1 1075//1 1077//1
f 1078//1 1077//1 1080//1
f 1079//1 1078//1 1080//1
f 1079//1 1080//1 1081//1
f 1076//1 1065//1 1071//1
f 1076//1 1071//1 1082//1
f 1077//1 1076//1 1082//1
f 1077//1 1082//1 1083//1
f 1082//1 1071//1 1073//1
f 1082//1 1073//1 1084//1
f 1083//1 1082//1 1084//1
f 1083//1 1084//1 1085//1
f 1080//1 1077//1 1083//1
f 1080//1 1083//1 1086//1
f 1081//1 1080//1 1086//1
f 1081//1 1086//1 1087//1
f 1086//1 1083//1 1085//1
f 1086//1 1085//1 1088//1
f 1087//1 1086//1 1088//1
f 1087//1 1088//1 1089//1
